{
  "version": "15.0.4",
  "vulnerabilities": [
    {
      "id": "305de079ffb7faa289bb04422b4614cf756b76de3e649434177ea14ef11119bd",
      "name": "Allocation of File Descriptors or Handles Without Limits or Throttling",
      "description": "Minio a Allocation of Memory Without Limits or Throttling vulnerability in write-to-RAM.",
      "severity": "High",
      "solution": "Unfortunately, there is no solution available yet.",
      "location": {
        "file": "subdir/go.sum",
        "dependency": {
          "package": {
            "name": "github.com/minio/minio"
          },
          "version": "v0.0.0-20180419184637-5a16671f721f"
        }
      },
      "identifiers": [
        {
          "type": "gemnasium",
          "name": "Gemnasium-051e7fdd-4e0a-4dfd-ba52-083ee235a580",
          "value": "051e7fdd-4e0a-4dfd-ba52-083ee235a580",
          "url": "https://gitlab.com/gitlab-org/security-products/gemnasium-db/-/blob/v1.2.142/go/github.com/minio/minio/CVE-2018-1000538.yml"
        },
        {
          "type": "cve",
          "name": "CVE-2018-1000538",
          "value": "CVE-2018-1000538",
          "url": "https://cve.mitre.org/cgi-bin/cvename.cgi?name=CVE-2018-1000538"
        }
      ],
      "links": [
        {
          "url": "https://github.com/minio/minio/pull/5957"
        },
        {
          "url": "https://nvd.nist.gov/vuln/detail/CVE-2018-1000538"
        }
      ],
      "details": {
        "vulnerable_package": {
          "type": "text",
          "name": "Vulnerable Package",
          "value": "github.com/minio/minio:v0.0.0-20180419184637-5a16671f721f"
        }
      }
    },
    {
      "id": "ac331118df6d37f1b54042c3728d543e9070a5108462b33cb8477b9399c465a4",
      "name": "Improper Authentication",
      "description": "MinIO versions before has an authentication bypass issue in the MinIO admin API. Given an admin access key, it is possible to perform admin API operations, i.e., creating new service accounts for existing access keys without knowing the admin secret key.",
      "severity": "High",
      "solution": "Upgrade to version RELEASE.2020-04-23T00-58-49Z or above.",
      "location": {
        "file": "subdir/go.sum",
        "dependency": {
          "package": {
            "name": "github.com/minio/minio"
          },
          "version": "v0.0.0-20180419184637-5a16671f721f"
        }
      },
      "identifiers": [
        {
          "type": "gemnasium",
          "name": "Gemnasium-216192fe-2efa-4c52-addd-4bf3522c2b69",
          "value": "216192fe-2efa-4c52-addd-4bf3522c2b69",
          "url": "https://gitlab.com/gitlab-org/security-products/gemnasium-db/-/blob/v1.2.142/go/github.com/minio/minio/CVE-2020-11012.yml"
        },
        {
          "type": "cve",
          "name": "CVE-2020-11012",
          "value": "CVE-2020-11012",
          "url": "https://cve.mitre.org/cgi-bin/cvename.cgi?name=CVE-2020-11012"
        }
      ],
      "links": [
        {
          "url": "https://nvd.nist.gov/vuln/detail/CVE-2020-11012"
        }
      ],
      "details": {
        "vulnerable_package": {
          "type": "text",
          "name": "Vulnerable Package",
          "value": "github.com/minio/minio:v0.0.0-20180419184637-5a16671f721f"
        }
      }
    },
    {
      "id": "1935373caac1293ed8ea6eabc26e4fc42589595946eb8a95dd5391813af03450",
      "name": "Concurrent Execution using Shared Resource with Improper Synchronization (Race Condition)",
      "description": "The File Session Manager in Beego allows local users to read session files because there is a race condition involving file creation within a directory with weak permissions.",
      "severity": "Medium",
      "solution": "Upgrade to version 1.10.1 or above.",
      "location": {
        "file": "subdir/go.sum",
        "dependency": {
          "package": {
            "name": "github.com/astaxie/beego"
          },
          "version": "v1.10.0"
        }
      },
      "identifiers": [
        {
          "type": "gemnasium",
          "name": "Gemnasium-5cbdb968-d76c-4285-9597-33fbb14d4ac2",
          "value": "5cbdb968-d76c-4285-9597-33fbb14d4ac2",
          "url": "https://gitlab.com/gitlab-org/security-products/gemnasium-db/-/blob/v1.2.142/go/github.com/astaxie/beego/CVE-2019-16354.yml"
        },
        {
          "type": "cve",
          "name": "CVE-2019-16354",
          "value": "CVE-2019-16354",
          "url": "https://cve.mitre.org/cgi-bin/cvename.cgi?name=CVE-2019-16354"
        }
      ],
      "links": [
        {
          "url": "https://nvd.nist.gov/vuln/detail/CVE-2019-16354"
        }
      ],
      "details": {
        "vulnerable_package": {
          "type": "text",
          "name": "Vulnerable Package",
          "value": "github.com/astaxie/beego:v1.10.0"
        }
      }
    },
    {
      "id": "3654a7cb3288668d3f6461dd9af1ecde04998294a689aee64ee2414045417d1e",
      "name": "Incorrect Default Permissions",
      "description": "The File Session Manager in Beego allows local users to read session files because of weak permissions for individual files.",
      "severity": "Medium",
      "solution": "Upgrade to version 1.10.1 or above.",
      "location": {
        "file": "subdir/go.sum",
        "dependency": {
          "package": {
            "name": "github.com/astaxie/beego"
          },
          "version": "v1.10.0"
        }
      },
      "identifiers": [
        {
          "type": "gemnasium",
          "name": "Gemnasium-b9fefee9-c6b2-460d-a61a-e02696c8900b",
          "value": "b9fefee9-c6b2-460d-a61a-e02696c8900b",
          "url": "https://gitlab.com/gitlab-org/security-products/gemnasium-db/-/blob/v1.2.142/go/github.com/astaxie/beego/CVE-2019-16355.yml"
        },
        {
          "type": "cve",
          "name": "CVE-2019-16355",
          "value": "CVE-2019-16355",
          "url": "https://cve.mitre.org/cgi-bin/cvename.cgi?name=CVE-2019-16355"
        }
      ],
      "links": [
        {
          "url": "https://nvd.nist.gov/vuln/detail/CVE-2019-16355"
        }
      ],
      "details": {
        "vulnerable_package": {
          "type": "text",
          "name": "Vulnerable Package",
          "value": "github.com/astaxie/beego:v1.10.0"
        }
      }
    },
    {
      "id": "ff2ddc13af005ea0caf09a7af45f5801169a4ad906e0921e3beeb4ecf7aca438",
      "name": "XML Entity Expansion",
      "description": "go-yaml is vulnerable to a Billion Laughs Attack.",
      "severity": "Unknown",
      "solution": "Upgrade to version 2.2.3 or above.",
      "location": {
        "file": "subdir/go.sum",
        "dependency": {
          "package": {
            "name": "gopkg.in/yaml.v2"
          },
          "version": "v2.2.2"
        }
      },
      "identifiers": [
        {
          "type": "gemnasium",
          "name": "Gemnasium-7368f513-0aa9-4e34-a08d-40ea81f48e0e",
          "value": "7368f513-0aa9-4e34-a08d-40ea81f48e0e",
          "url": "https://gitlab.com/gitlab-org/security-products/gemnasium-db/-/blob/v1.2.142/go/gopkg.in/yaml.v2/GMS-2019-2.yml"
        }
      ],
      "links": [
        {
          "url": "https://github.com/docker/cli/pull/2117"
        }
      ],
      "details": {
        "vulnerable_package": {
          "type": "text",
          "name": "Vulnerable Package",
          "value": "gopkg.in/yaml.v2:v2.2.2"
        }
      }
    }
  ],
  "dependency_files": [
    {
      "path": "subdir/go.sum",
      "package_manager": "go",
      "dependencies": [
        {
          "package": {
            "name": "github.com/astaxie/beego"
          },
          "version": "v1.10.0"
        },
        {
          "package": {
            "name": "github.com/davecgh/go-spew"
          },
          "version": "v1.1.1"
        },
        {
          "package": {
            "name": "github.com/konsorten/go-windows-terminal-sequences"
          },
          "version": "v1.0.1"
        },
        {
          "package": {
            "name": "github.com/minio/minio"
          },
          "version": "v0.0.0-20180419184637-5a16671f721f"
        },
        {
          "package": {
            "name": "github.com/minio/minio-go"
          },
          "version": "v6.0.14"
        },
        {
          "package": {
            "name": "github.com/minio/sha256-simd"
          },
          "version": "v0.1.1"
        },
        {
          "package": {
            "name": "github.com/pmezard/go-difflib"
          },
          "version": "v1.0.0"
        },
        {
          "package": {
            "name": "github.com/sirupsen/logrus"
          },
          "version": "v1.4.2"
        },
        {
          "package": {
            "name": "github.com/stretchr/objx"
          },
          "version": "v0.1.1"
        },
        {
          "package": {
            "name": "github.com/stretchr/testify"
          },
          "version": "v1.2.2"
        },
        {
          "package": {
            "name": "golang.org/x/sys"
          },
          "version": "v0.0.0-20190422165155-953cdadca894"
        },
        {
          "package": {
            "name": "golang.org/x/sys"
          },
          "version": "v0.0.0-20191026070338-33540a1f6037"
        },
        {
          "package": {
            "name": "gopkg.in/check.v1"
          },
          "version": "v0.0.0-20161208181325-20d25e280405"
        },
        {
          "package": {
            "name": "gopkg.in/yaml.v2"
          },
          "version": "v2.2.2"
        }
      ]
    }
  ],
  "scan": {
    "analyzer": {
      "id": "gemnasium",
      "name": "Gemnasium",
      "url": "https://gitlab.com/gitlab-org/security-products/analyzers/gemnasium",
      "vendor": {
        "name": "GitLab"
      },
      "version": "3.6.0"
    },
    "scanner": {
      "id": "gemnasium",
      "name": "Gemnasium",
      "url": "https://gitlab.com/gitlab-org/security-products/analyzers/gemnasium",
      "vendor": {
        "name": "GitLab"
      },
      "version": "3.6.0"
    },
    "type": "dependency_scanning",
    "start_time": "2022-08-09T18:26:49",
    "end_time": "2022-08-09T18:26:52",
    "status": "success"
  }
}
