[
  {
    "name": "System.IO.Pipelines",
    "version": "5.0.0"
  },
  {
    "name": "Swashbuckle.AspNetCore",
    "version": "6.2.3"
  },
  {
    "name": "Microsoft.Extensions.ApiDescription.Server",
    "version": "3.0.0"
  },
  {
    "name": "Microsoft.NETCore.Platforms",
    "version": "5.0.0"
  },
  {
    "name": "Microsoft.OpenApi",
    "version": "1.2.3"
  },
  {
    "name": "System.Configuration.ConfigurationManager",
    "version": "5.0.0"
  },
  {
    "name": "System.Security.Cryptography.ProtectedData",
    "version": "5.0.0"
  },
  {
    "name": "Microsoft.Win32.Registry",
    "version": "5.0.0"
  },
  {
    "name": "Microsoft.Win32.SystemEvents",
    "version": "5.0.0"
  },
  {
    "name": "Pipelines.Sockets.Unofficial",
    "version": "2.2.0"
  },
  {
    "name": "Swashbuckle.AspNetCore.Swagger",
    "version": "6.2.3"
  },
  {
    "name": "System.Security.Principal.Windows",
    "version": "5.0.0"
  },
  {
    "name": "System.Windows.Extensions",
    "version": "5.0.0"
  },
  {
    "name": "veryprivatelib",
    "version": ""
  },
  {
    "name": "Swashbuckle.AspNetCore.SwaggerUI",
    "version": "6.2.3"
  },
  {
    "name": "System.Diagnostics.PerformanceCounter",
    "version": "5.0.0"
  },
  {
    "name": "System.Drawing.Common",
    "version": "5.0.0"
  },
  {
    "name": "System.Security.Permissions",
    "version": "5.0.0"
  },
  {
    "name": "StackExchange.Redis",
    "version": "2.2.88"
  },
  {
    "name": "Swashbuckle.AspNetCore.SwaggerGen",
    "version": "6.2.3"
  },
  {
    "name": "System.Security.AccessControl",
    "version": "5.0.0"
  }
]
