[
  {
    "to": {
      "name": "wolfssl",
      "version": "4.4.0"
    },
    "range": "4.4.0"
  },
  {
    "to": {
      "name": "jerryscript",
      "version": "2.2.0"
    },
    "range": "2.2.0"
  },
  {
    "to": {
      "name": "poco",
      "version": "1.8.1"
    },
    "range": "1.8.1",
    "dev": true
  },
  {
    "from": {
      "name": "poco",
      "version": "1.8.1"
    },
    "to": {
      "name": "pcre",
      "version": "8.45"
    },
    "range": "8.45",
    "dev": true
  },
  {
    "from": {
      "name": "poco",
      "version": "1.8.1"
    },
    "to": {
      "name": "zlib",
      "version": "1.2.13"
    },
    "range": "1.2.13",
    "dev": true
  },
  {
    "from": {
      "name": "poco",
      "version": "1.8.1"
    },
    "to": {
      "name": "expat",
      "version": "2.5.0"
    },
    "range": "2.5.0",
    "dev": true
  },
  {
    "from": {
      "name": "poco",
      "version": "1.8.1"
    },
    "to": {
      "name": "sqlite3",
      "version": "3.40.1"
    },
    "range": "3.40.1",
    "dev": true
  },
  {
    "from": {
      "name": "poco",
      "version": "1.8.1"
    },
    "to": {
      "name": "openssl",
      "version": "1.1.1t"
    },
    "range": "1.1.1t",
    "dev": true
  },
  {
    "to": {
      "name": "libarchive",
      "version": "3.4.0"
    },
    "range": "3.4.0"
  },
  {
    "from": {
      "name": "libarchive",
      "version": "3.4.0"
    },
    "to": {
      "name": "zlib",
      "version": "1.2.13"
    },
    "range": "1.2.13"
  },
  {
    "from": {
      "name": "libarchive",
      "version": "3.4.0"
    },
    "to": {
      "name": "libiconv",
      "version": "1.17"
    },
    "range": "1.17"
  },
  {
    "to": {
      "name": "zstd",
      "version": "1.4.4"
    },
    "range": "1.4.4"
  },
  {
    "to": {
      "name": "zlib",
      "version": "1.2.13"
    },
    "range": "1.2.13"
  },
  {
    "from": {
      "name": "pcre",
      "version": "8.45"
    },
    "to": {
      "name": "bzip2",
      "version": "1.0.8"
    },
    "range": "1.0.8",
    "dev": true
  },
  {
    "from": {
      "name": "pcre",
      "version": "8.45"
    },
    "to": {
      "name": "zlib",
      "version": "1.2.13"
    },
    "range": "1.2.13",
    "dev": true
  }
]
