{
  "version": "15.0.4",
  "vulnerabilities": [
    {
      "id": "c7e17511c7106596f0cc922e517e0feeec8ebac3adc7eb00e5348e196a590a62",
      "name": "Remote Code Execution",
      "description": "There exists a Java Object in this package that can be manipulated in such a way that when it is deserialized, it can write or copy files to disk in arbitrary locations. Furthermore, while the Object can be used alone, this new vector can be integrated with ysoserial to upload and execute binaries in a single deserialization call. This may or may not work depending on an application's implementation of the FileUpload library.",
      "severity": "Critical",
      "solution": "Upgrade to latest version.",
      "location": {
        "file": "api/pom.xml",
        "dependency": {
          "package": {
            "name": "commons-fileupload/commons-fileupload"
          },
          "version": "1.3.1"
        }
      },
      "identifiers": [
        {
          "type": "gemnasium",
          "name": "Gemnasium-b7ddbca2-ecba-47ac-bbb5-bbee68dca4fc",
          "value": "b7ddbca2-ecba-47ac-bbb5-bbee68dca4fc",
          "url": "https://gitlab.com/gitlab-org/security-products/gemnasium-db/-/blob/v1.2.142/maven/commons-fileupload/commons-fileupload/CVE-2016-1000031.yml"
        },
        {
          "type": "cve",
          "name": "CVE-2016-1000031",
          "value": "CVE-2016-1000031",
          "url": "https://cve.mitre.org/cgi-bin/cvename.cgi?name=CVE-2016-1000031"
        }
      ],
      "links": [
        {
          "url": "https://issues.apache.org/jira/browse/FILEUPLOAD-279"
        },
        {
          "url": "https://nvd.nist.gov/vuln/detail/CVE-2016-1000031"
        },
        {
          "url": "https://www.tenable.com/security/research/tra-2016-12"
        }
      ],
      "details": {
        "vulnerable_package": {
          "name": "Vulnerable Package",
          "type": "text",
          "value": "commons-fileupload/commons-fileupload:1.3.1"
        }
      }
    },
    {
      "id": "79e67580f9e21485ada051d3dc3d7358b9125704465d10cc9b40ae6f4c68a579",
      "name": "Inconsistent Interpretation of HTTP Requests (HTTP Request Smuggling)",
      "description": "`HttpObjectDecoder.java` in Netty allows an HTTP header that lacks a colon, which might be interpreted as a separate header with an incorrect syntax, or might be interpreted as an invalid fold.",
      "severity": "Critical",
      "solution": "Upgrade to version 4.1.44.Final or above.",
      "location": {
        "file": "api/pom.xml",
        "dependency": {
          "package": {
            "name": "io.netty/netty-all"
          },
          "version": "4.1.0.Final"
        }
      },
      "identifiers": [
        {
          "type": "gemnasium",
          "name": "Gemnasium-0e0bfa71-296c-4a0c-9e9c-f0e70ca44248",
          "value": "0e0bfa71-296c-4a0c-9e9c-f0e70ca44248",
          "url": "https://gitlab.com/gitlab-org/security-products/gemnasium-db/-/blob/v1.2.142/maven/io.netty/netty-all/CVE-2019-20444.yml"
        },
        {
          "type": "cve",
          "name": "CVE-2019-20444",
          "value": "CVE-2019-20444",
          "url": "https://cve.mitre.org/cgi-bin/cvename.cgi?name=CVE-2019-20444"
        }
      ],
      "links": [
        {
          "url": "https://github.com/netty/netty/issues/9866"
        },
        {
          "url": "https://nvd.nist.gov/vuln/detail/CVE-2019-20444"
        }
      ],
      "details": {
        "vulnerable_package": {
          "name": "Vulnerable Package",
          "type": "text",
          "value": "io.netty/netty-all:4.1.0.Final"
        }
      }
    },
    {
      "id": "0aca0a0e9a362418834dbe06939d5f0103fc3a3db079485250c688109b2e90dd",
      "name": "Inconsistent Interpretation of HTTP Requests (HTTP Request Smuggling)",
      "description": "`HttpObjectDecoder.java` in Netty allows a Content-Length header to be accompanied by a second `Content-Length` header, or by a `Transfer-Encoding` header.",
      "severity": "Critical",
      "solution": "Upgrade to version 4.1.44.Final or above.",
      "location": {
        "file": "api/pom.xml",
        "dependency": {
          "package": {
            "name": "io.netty/netty-all"
          },
          "version": "4.1.0.Final"
        }
      },
      "identifiers": [
        {
          "type": "gemnasium",
          "name": "Gemnasium-4b617752-889e-481d-80a4-42276bd7985c",
          "value": "4b617752-889e-481d-80a4-42276bd7985c",
          "url": "https://gitlab.com/gitlab-org/security-products/gemnasium-db/-/blob/v1.2.142/maven/io.netty/netty-all/CVE-2019-20445.yml"
        },
        {
          "type": "cve",
          "name": "CVE-2019-20445",
          "value": "CVE-2019-20445",
          "url": "https://cve.mitre.org/cgi-bin/cvename.cgi?name=CVE-2019-20445"
        }
      ],
      "links": [
        {
          "url": "https://github.com/netty/netty/issues/9861"
        },
        {
          "url": "https://nvd.nist.gov/vuln/detail/CVE-2019-20445"
        }
      ],
      "details": {
        "vulnerable_package": {
          "name": "Vulnerable Package",
          "type": "text",
          "value": "io.netty/netty-all:4.1.0.Final"
        }
      }
    },
    {
      "id": "a6ff7a2eb00774d7b97918915b0d0245ae5e120cd90e6ec5cbc688ca601decf0",
      "name": "Improper Restriction of Operations within the Bounds of a Memory Buffer",
      "description": "The `ZlibDecoders` in Netty contains an unbounded memory allocation while decoding a `ZlibEncoded` byte stream. An attacker could send a large `ZlibEncoded` byte stream to the Netty server, forcing the server to allocate all of its free memory to a single decoder.",
      "severity": "Critical",
      "solution": "Upgrade to version 4.1.46.Final or above.",
      "location": {
        "file": "api/pom.xml",
        "dependency": {
          "package": {
            "name": "io.netty/netty-all"
          },
          "version": "4.1.0.Final"
        }
      },
      "identifiers": [
        {
          "type": "gemnasium",
          "name": "Gemnasium-959c5b79-9095-4559-ba91-ed0d77284822",
          "value": "959c5b79-9095-4559-ba91-ed0d77284822",
          "url": "https://gitlab.com/gitlab-org/security-products/gemnasium-db/-/blob/v1.2.142/maven/io.netty/netty-all/CVE-2020-11612.yml"
        },
        {
          "type": "cve",
          "name": "CVE-2020-11612",
          "value": "CVE-2020-11612",
          "url": "https://cve.mitre.org/cgi-bin/cvename.cgi?name=CVE-2020-11612"
        }
      ],
      "links": [
        {
          "url": "https://nvd.nist.gov/vuln/detail/CVE-2020-11612"
        }
      ],
      "details": {
        "vulnerable_package": {
          "name": "Vulnerable Package",
          "type": "text",
          "value": "io.netty/netty-all:4.1.0.Final"
        }
      }
    },
    {
      "id": "ec50c6eaadfe2c05cbcdacf764dabcabd9530b83de1d23a97c0b07b5b2f68fed",
      "name": "Possible Remote Code Execution when performing file upload based on Jakarta Multipart parser.",
      "description": "The Jakarta Multipart parser in Apache has incorrect exception handling and error-message generation during file-upload attempts, which allows remote attackers to execute arbitrary commands via a crafted `Content-Type`, `Content-Disposition`, or `Content-Length` HTTP header.",
      "severity": "Critical",
      "solution": "Upgrade to versions 2.3.32, 2.5.10.1 or above.",
      "location": {
        "file": "api/pom.xml",
        "dependency": {
          "package": {
            "name": "org.apache.struts/struts2-core"
          },
          "version": "2.5.1"
        }
      },
      "identifiers": [
        {
          "type": "gemnasium",
          "name": "Gemnasium-40296bd2-1706-4e1b-9f25-8636282fb531",
          "value": "40296bd2-1706-4e1b-9f25-8636282fb531",
          "url": "https://gitlab.com/gitlab-org/security-products/gemnasium-db/-/blob/v1.2.142/maven/org.apache.struts/struts2-core/CVE-2017-5638.yml"
        },
        {
          "type": "cve",
          "name": "CVE-2017-5638",
          "value": "CVE-2017-5638",
          "url": "https://cve.mitre.org/cgi-bin/cvename.cgi?name=CVE-2017-5638"
        }
      ],
      "links": [
        {
          "url": "http://www.securityfocus.com/bid/96729"
        },
        {
          "url": "https://cve.mitre.org/cgi-bin/cvename.cgi?name=CVE-2017-5638"
        },
        {
          "url": "https://cwiki.apache.org/confluence/display/WW/S2-045"
        },
        {
          "url": "https://exploit-db.com/exploits/41570"
        },
        {
          "url": "https://nvd.nist.gov/vuln/detail/CVE-2017-5638"
        },
        {
          "url": "https://packetstormsecurity.com/files/141494/S2-45-poc.py.txt"
        }
      ],
      "details": {
        "vulnerable_package": {
          "name": "Vulnerable Package",
          "type": "text",
          "value": "org.apache.struts/struts2-core:2.5.1"
        }
      }
    },
    {
      "id": "a7a0b13c35f3d42bc0f0fa89d7e634647773adda7d1946d8f478adee208d8973",
      "name": "Improper Input Validation",
      "description": "Using an unintentional expression in a Freemarker tag instead of string literals can lead to a RCE attack.",
      "severity": "Critical",
      "solution": "Upgrade to versions 2.3.24, 2.5.12 or above.",
      "location": {
        "file": "api/pom.xml",
        "dependency": {
          "package": {
            "name": "org.apache.struts/struts2-core"
          },
          "version": "2.5.1"
        }
      },
      "identifiers": [
        {
          "type": "gemnasium",
          "name": "Gemnasium-76abfbfd-9e0c-44fc-a8da-11f352a7be04",
          "value": "76abfbfd-9e0c-44fc-a8da-11f352a7be04",
          "url": "https://gitlab.com/gitlab-org/security-products/gemnasium-db/-/blob/v1.2.142/maven/org.apache.struts/struts2-core/CVE-2017-12611.yml"
        },
        {
          "type": "cve",
          "name": "CVE-2017-12611",
          "value": "CVE-2017-12611",
          "url": "https://cve.mitre.org/cgi-bin/cvename.cgi?name=CVE-2017-12611"
        }
      ],
      "links": [
        {
          "url": "http://www.securityfocus.com/bid/100829"
        },
        {
          "url": "https://nvd.nist.gov/vuln/detail/CVE-2017-12611"
        },
        {
          "url": "https://struts.apache.org/docs/s2-053.html"
        }
      ],
      "details": {
        "vulnerable_package": {
          "name": "Vulnerable Package",
          "type": "text",
          "value": "org.apache.struts/struts2-core:2.5.1"
        }
      }
    },
    {
      "id": "b9853f425671f8ac7ab323f9b25c3903c5e16b1159055727a0cbba6a2f6b7158",
      "name": "Inconsistent Interpretation of HTTP Requests (HTTP Request Smuggling)",
      "description": "`HttpObjectDecoder.java` in Netty allows an HTTP header that lacks a colon, which might be interpreted as a separate header with an incorrect syntax, or might be interpreted as an invalid fold.",
      "severity": "Critical",
      "solution": "Upgrade to version 4.1.44.Final or above.",
      "location": {
        "file": "model/pom.xml",
        "dependency": {
          "package": {
            "name": "io.netty/netty-all"
          },
          "version": "4.1.0.Final"
        }
      },
      "identifiers": [
        {
          "type": "gemnasium",
          "name": "Gemnasium-0e0bfa71-296c-4a0c-9e9c-f0e70ca44248",
          "value": "0e0bfa71-296c-4a0c-9e9c-f0e70ca44248",
          "url": "https://gitlab.com/gitlab-org/security-products/gemnasium-db/-/blob/v1.2.142/maven/io.netty/netty-all/CVE-2019-20444.yml"
        },
        {
          "type": "cve",
          "name": "CVE-2019-20444",
          "value": "CVE-2019-20444",
          "url": "https://cve.mitre.org/cgi-bin/cvename.cgi?name=CVE-2019-20444"
        }
      ],
      "links": [
        {
          "url": "https://github.com/netty/netty/issues/9866"
        },
        {
          "url": "https://nvd.nist.gov/vuln/detail/CVE-2019-20444"
        }
      ],
      "details": {
        "vulnerable_package": {
          "name": "Vulnerable Package",
          "type": "text",
          "value": "io.netty/netty-all:4.1.0.Final"
        }
      }
    },
    {
      "id": "216a42490a4badc433313c33f400f5e965ddd899b8a8f4bfc4abe1532483b26f",
      "name": "Inconsistent Interpretation of HTTP Requests (HTTP Request Smuggling)",
      "description": "`HttpObjectDecoder.java` in Netty allows a Content-Length header to be accompanied by a second `Content-Length` header, or by a `Transfer-Encoding` header.",
      "severity": "Critical",
      "solution": "Upgrade to version 4.1.44.Final or above.",
      "location": {
        "file": "model/pom.xml",
        "dependency": {
          "package": {
            "name": "io.netty/netty-all"
          },
          "version": "4.1.0.Final"
        }
      },
      "identifiers": [
        {
          "type": "gemnasium",
          "name": "Gemnasium-4b617752-889e-481d-80a4-42276bd7985c",
          "value": "4b617752-889e-481d-80a4-42276bd7985c",
          "url": "https://gitlab.com/gitlab-org/security-products/gemnasium-db/-/blob/v1.2.142/maven/io.netty/netty-all/CVE-2019-20445.yml"
        },
        {
          "type": "cve",
          "name": "CVE-2019-20445",
          "value": "CVE-2019-20445",
          "url": "https://cve.mitre.org/cgi-bin/cvename.cgi?name=CVE-2019-20445"
        }
      ],
      "links": [
        {
          "url": "https://github.com/netty/netty/issues/9861"
        },
        {
          "url": "https://nvd.nist.gov/vuln/detail/CVE-2019-20445"
        }
      ],
      "details": {
        "vulnerable_package": {
          "name": "Vulnerable Package",
          "type": "text",
          "value": "io.netty/netty-all:4.1.0.Final"
        }
      }
    },
    {
      "id": "8197e01dcc853bd31728b87a18a20b130a51049ffa2440410f0bf0af2652228d",
      "name": "Improper Restriction of Operations within the Bounds of a Memory Buffer",
      "description": "The `ZlibDecoders` in Netty contains an unbounded memory allocation while decoding a `ZlibEncoded` byte stream. An attacker could send a large `ZlibEncoded` byte stream to the Netty server, forcing the server to allocate all of its free memory to a single decoder.",
      "severity": "Critical",
      "solution": "Upgrade to version 4.1.46.Final or above.",
      "location": {
        "file": "model/pom.xml",
        "dependency": {
          "package": {
            "name": "io.netty/netty-all"
          },
          "version": "4.1.0.Final"
        }
      },
      "identifiers": [
        {
          "type": "gemnasium",
          "name": "Gemnasium-959c5b79-9095-4559-ba91-ed0d77284822",
          "value": "959c5b79-9095-4559-ba91-ed0d77284822",
          "url": "https://gitlab.com/gitlab-org/security-products/gemnasium-db/-/blob/v1.2.142/maven/io.netty/netty-all/CVE-2020-11612.yml"
        },
        {
          "type": "cve",
          "name": "CVE-2020-11612",
          "value": "CVE-2020-11612",
          "url": "https://cve.mitre.org/cgi-bin/cvename.cgi?name=CVE-2020-11612"
        }
      ],
      "links": [
        {
          "url": "https://nvd.nist.gov/vuln/detail/CVE-2020-11612"
        }
      ],
      "details": {
        "vulnerable_package": {
          "name": "Vulnerable Package",
          "type": "text",
          "value": "io.netty/netty-all:4.1.0.Final"
        }
      }
    },
    {
      "id": "68455de18cde4e957e4c9f7c2180c12467a1a1837214f2ddcd4b26e56b5352b5",
      "name": "Inconsistent Interpretation of HTTP Requests (HTTP Request Smuggling)",
      "description": "`HttpObjectDecoder.java` in Netty allows an HTTP header that lacks a colon, which might be interpreted as a separate header with an incorrect syntax, or might be interpreted as an invalid fold.",
      "severity": "Critical",
      "solution": "Upgrade to version 4.1.44.Final or above.",
      "location": {
        "file": "pom.xml",
        "dependency": {
          "package": {
            "name": "io.netty/netty-all"
          },
          "version": "4.1.0.Final"
        }
      },
      "identifiers": [
        {
          "type": "gemnasium",
          "name": "Gemnasium-0e0bfa71-296c-4a0c-9e9c-f0e70ca44248",
          "value": "0e0bfa71-296c-4a0c-9e9c-f0e70ca44248",
          "url": "https://gitlab.com/gitlab-org/security-products/gemnasium-db/-/blob/v1.2.142/maven/io.netty/netty-all/CVE-2019-20444.yml"
        },
        {
          "type": "cve",
          "name": "CVE-2019-20444",
          "value": "CVE-2019-20444",
          "url": "https://cve.mitre.org/cgi-bin/cvename.cgi?name=CVE-2019-20444"
        }
      ],
      "links": [
        {
          "url": "https://github.com/netty/netty/issues/9866"
        },
        {
          "url": "https://nvd.nist.gov/vuln/detail/CVE-2019-20444"
        }
      ],
      "details": {
        "vulnerable_package": {
          "name": "Vulnerable Package",
          "type": "text",
          "value": "io.netty/netty-all:4.1.0.Final"
        }
      }
    },
    {
      "id": "f7fadc1065881a805e9c8326fac540ab3921c09068d2dc74bb9a687012d470ea",
      "name": "Inconsistent Interpretation of HTTP Requests (HTTP Request Smuggling)",
      "description": "`HttpObjectDecoder.java` in Netty allows a Content-Length header to be accompanied by a second `Content-Length` header, or by a `Transfer-Encoding` header.",
      "severity": "Critical",
      "solution": "Upgrade to version 4.1.44.Final or above.",
      "location": {
        "file": "pom.xml",
        "dependency": {
          "package": {
            "name": "io.netty/netty-all"
          },
          "version": "4.1.0.Final"
        }
      },
      "identifiers": [
        {
          "type": "gemnasium",
          "name": "Gemnasium-4b617752-889e-481d-80a4-42276bd7985c",
          "value": "4b617752-889e-481d-80a4-42276bd7985c",
          "url": "https://gitlab.com/gitlab-org/security-products/gemnasium-db/-/blob/v1.2.142/maven/io.netty/netty-all/CVE-2019-20445.yml"
        },
        {
          "type": "cve",
          "name": "CVE-2019-20445",
          "value": "CVE-2019-20445",
          "url": "https://cve.mitre.org/cgi-bin/cvename.cgi?name=CVE-2019-20445"
        }
      ],
      "links": [
        {
          "url": "https://github.com/netty/netty/issues/9861"
        },
        {
          "url": "https://nvd.nist.gov/vuln/detail/CVE-2019-20445"
        }
      ],
      "details": {
        "vulnerable_package": {
          "name": "Vulnerable Package",
          "type": "text",
          "value": "io.netty/netty-all:4.1.0.Final"
        }
      }
    },
    {
      "id": "05a9e04eddb5de99a30b594289e6de7454c02b8570a0352274531f366e3d1e02",
      "name": "Improper Restriction of Operations within the Bounds of a Memory Buffer",
      "description": "The `ZlibDecoders` in Netty contains an unbounded memory allocation while decoding a `ZlibEncoded` byte stream. An attacker could send a large `ZlibEncoded` byte stream to the Netty server, forcing the server to allocate all of its free memory to a single decoder.",
      "severity": "Critical",
      "solution": "Upgrade to version 4.1.46.Final or above.",
      "location": {
        "file": "pom.xml",
        "dependency": {
          "package": {
            "name": "io.netty/netty-all"
          },
          "version": "4.1.0.Final"
        }
      },
      "identifiers": [
        {
          "type": "gemnasium",
          "name": "Gemnasium-959c5b79-9095-4559-ba91-ed0d77284822",
          "value": "959c5b79-9095-4559-ba91-ed0d77284822",
          "url": "https://gitlab.com/gitlab-org/security-products/gemnasium-db/-/blob/v1.2.142/maven/io.netty/netty-all/CVE-2020-11612.yml"
        },
        {
          "type": "cve",
          "name": "CVE-2020-11612",
          "value": "CVE-2020-11612",
          "url": "https://cve.mitre.org/cgi-bin/cvename.cgi?name=CVE-2020-11612"
        }
      ],
      "links": [
        {
          "url": "https://nvd.nist.gov/vuln/detail/CVE-2020-11612"
        }
      ],
      "details": {
        "vulnerable_package": {
          "name": "Vulnerable Package",
          "type": "text",
          "value": "io.netty/netty-all:4.1.0.Final"
        }
      }
    },
    {
      "id": "6571df03b31e3cd07c50815e55f30b53e1b8a2267114ddbcad0dae1093acc6a0",
      "name": "Denial of Service",
      "description": "The MultipartStream class in this package allows remote attackers to cause a denial of service (CPU consumption) via a long boundary string.",
      "severity": "High",
      "solution": "Upgrade to the latest version",
      "location": {
        "file": "api/pom.xml",
        "dependency": {
          "package": {
            "name": "commons-fileupload/commons-fileupload"
          },
          "version": "1.3.1"
        }
      },
      "identifiers": [
        {
          "type": "gemnasium",
          "name": "Gemnasium-1df388fd-e11b-4b96-8338-72344fc10180",
          "value": "1df388fd-e11b-4b96-8338-72344fc10180",
          "url": "https://gitlab.com/gitlab-org/security-products/gemnasium-db/-/blob/v1.2.142/maven/commons-fileupload/commons-fileupload/CVE-2016-3092.yml"
        },
        {
          "type": "cve",
          "name": "CVE-2016-3092",
          "value": "CVE-2016-3092",
          "url": "https://cve.mitre.org/cgi-bin/cvename.cgi?name=CVE-2016-3092"
        }
      ],
      "links": [
        {
          "url": "http://mail-archives.us.apache.org/mod_mbox/www-announce/201606.mbox/%3C6223ece6-2b41-ef4f-22f9-d3481e492832@apache.org%3E"
        },
        {
          "url": "http://svn.apache.org/viewvc/commons/proper/fileupload/trunk/RELEASE-NOTES.txt?r1=1745717&r2=1749637&diff_format=h"
        },
        {
          "url": "http://tomcat.apache.org/security.html"
        },
        {
          "url": "https://bugzilla.redhat.com/show_bug.cgi?id=1349475"
        },
        {
          "url": "https://cve.mitre.org/cgi-bin/cvename.cgi?name=CVE-2016-3092"
        }
      ],
      "details": {
        "vulnerable_package": {
          "name": "Vulnerable Package",
          "type": "text",
          "value": "commons-fileupload/commons-fileupload:1.3.1"
        }
      }
    },
    {
      "id": "d2ae31229f9c460b07907bf97a3b31b9742b4e3b62daf1f0361e4208af38a93b",
      "name": "Infinite Loop for SSL Handler",
      "description": "`handler/ssl/OpenSslEngine.java` in this package allows remote attackers to cause a denial of service (infinite loop).",
      "severity": "High",
      "solution": "Upgrade to the latest version",
      "location": {
        "file": "api/pom.xml",
        "dependency": {
          "package": {
            "name": "io.netty/netty-all"
          },
          "version": "4.1.0.Final"
        }
      },
      "identifiers": [
        {
          "type": "gemnasium",
          "name": "Gemnasium-2760cba8-cfeb-4f93-9a8d-90efc3867570",
          "value": "2760cba8-cfeb-4f93-9a8d-90efc3867570",
          "url": "https://gitlab.com/gitlab-org/security-products/gemnasium-db/-/blob/v1.2.142/maven/io.netty/netty-all/CVE-2016-4970.yml"
        },
        {
          "type": "cve",
          "name": "CVE-2016-4970",
          "value": "CVE-2016-4970",
          "url": "https://cve.mitre.org/cgi-bin/cvename.cgi?name=CVE-2016-4970"
        }
      ],
      "links": [
        {
          "url": "http://netty.io/news/2016/06/07/4-0-37-Final.html"
        },
        {
          "url": "http://netty.io/news/2016/06/07/4-1-1-Final.html"
        }
      ],
      "details": {
        "vulnerable_package": {
          "name": "Vulnerable Package",
          "type": "text",
          "value": "io.netty/netty-all:4.1.0.Final"
        }
      }
    },
    {
      "id": "fe59bf589e69b54f98a48c85bf84ddcf17192ef10b80a30df2d929b7b41ccde6",
      "name": "Inconsistent Interpretation of HTTP Requests (HTTP Request Smuggling)",
      "description": "Netty mishandles whitespace before the colon in HTTP headers (such as a `Transfer-Encoding : chunked` line), which leads to HTTP request smuggling.",
      "severity": "High",
      "solution": "Upgrade to version 4.1.42.Final or above.",
      "location": {
        "file": "api/pom.xml",
        "dependency": {
          "package": {
            "name": "io.netty/netty-all"
          },
          "version": "4.1.0.Final"
        }
      },
      "identifiers": [
        {
          "type": "gemnasium",
          "name": "Gemnasium-77bd807c-fbd2-4601-90d1-0a355f9c4d66",
          "value": "77bd807c-fbd2-4601-90d1-0a355f9c4d66",
          "url": "https://gitlab.com/gitlab-org/security-products/gemnasium-db/-/blob/v1.2.142/maven/io.netty/netty-all/CVE-2019-16869.yml"
        },
        {
          "type": "cve",
          "name": "CVE-2019-16869",
          "value": "CVE-2019-16869",
          "url": "https://cve.mitre.org/cgi-bin/cvename.cgi?name=CVE-2019-16869"
        }
      ],
      "links": [
        {
          "url": "https://github.com/netty/netty/issues/9571"
        },
        {
          "url": "https://nvd.nist.gov/vuln/detail/CVE-2019-16869"
        }
      ],
      "details": {
        "vulnerable_package": {
          "name": "Vulnerable Package",
          "type": "text",
          "value": "io.netty/netty-all:4.1.0.Final"
        }
      }
    },
    {
      "id": "50f5c8ac582a10ccfda131b1328629c7f5741120e9484a9bba7bab68e541b25d",
      "name": "Remote Code Execution",
      "description": "Apache Struts suffers from RCE when `alwaysSelectFullNamespace` is true (either by user or a plugin like Convention Plugin).",
      "severity": "High",
      "solution": "Upgrade to versions 2.3.35, 2.5.17 or above.",
      "location": {
        "file": "api/pom.xml",
        "dependency": {
          "package": {
            "name": "org.apache.struts/struts2-core"
          },
          "version": "2.5.1"
        }
      },
      "identifiers": [
        {
          "type": "gemnasium",
          "name": "Gemnasium-10851920-6674-4061-bf61-9ca71fbce9b0",
          "value": "10851920-6674-4061-bf61-9ca71fbce9b0",
          "url": "https://gitlab.com/gitlab-org/security-products/gemnasium-db/-/blob/v1.2.142/maven/org.apache.struts/struts2-core/CVE-2018-11776.yml"
        },
        {
          "type": "cve",
          "name": "CVE-2018-11776",
          "value": "CVE-2018-11776",
          "url": "https://cve.mitre.org/cgi-bin/cvename.cgi?name=CVE-2018-11776"
        }
      ],
      "links": [
        {
          "url": "http://www.securityfocus.com/bid/105125"
        },
        {
          "url": "http://www.securitytracker.com/id/1041547"
        },
        {
          "url": "http://www.securitytracker.com/id/1041888"
        },
        {
          "url": "https://access.redhat.com/security/cve/CVE-2018-11776"
        },
        {
          "url": "https://cwiki.apache.org/confluence/display/WW/S2-057"
        },
        {
          "url": "https://nvd.nist.gov/vuln/detail/CVE-2018-11776"
        },
        {
          "url": "https://struts.apache.org/docs/s2-057.html"
        },
        {
          "url": "https://www.exploit-db.com/exploits/45260/"
        },
        {
          "url": "https://www.exploit-db.com/exploits/45262/"
        },
        {
          "url": "https://www.exploit-db.com/exploits/45367/"
        }
      ],
      "details": {
        "vulnerable_package": {
          "name": "Vulnerable Package",
          "type": "text",
          "value": "org.apache.struts/struts2-core:2.5.1"
        }
      }
    },
    {
      "id": "0c969989fa30d6a0ee8165169803d889b2884b01ffbe2d740df562d3678e7257",
      "name": "DoS attack via crafted XML payload processed by REST Plugin using XStream library",
      "description": "The REST Plugin in this package is using an outdated XStream library which is vulnerable and allow perform a DoS attack using malicious request with specially crafted XML payload.",
      "severity": "High",
      "solution": "Upgrade to the latest version",
      "location": {
        "file": "api/pom.xml",
        "dependency": {
          "package": {
            "name": "org.apache.struts/struts2-core"
          },
          "version": "2.5.1"
        }
      },
      "identifiers": [
        {
          "type": "gemnasium",
          "name": "Gemnasium-4a2e48f6-b027-4d58-9b90-3d7269706013",
          "value": "4a2e48f6-b027-4d58-9b90-3d7269706013",
          "url": "https://gitlab.com/gitlab-org/security-products/gemnasium-db/-/blob/v1.2.142/maven/org.apache.struts/struts2-core/CVE-2017-9793.yml"
        },
        {
          "type": "cve",
          "name": "CVE-2017-9793",
          "value": "CVE-2017-9793",
          "url": "https://cve.mitre.org/cgi-bin/cvename.cgi?name=CVE-2017-9793"
        }
      ],
      "links": [
        {
          "url": "https://access.redhat.com/security/cve/CVE-2017-9793"
        },
        {
          "url": "https://struts.apache.org/docs/s2-051.html"
        }
      ],
      "details": {
        "vulnerable_package": {
          "name": "Vulnerable Package",
          "type": "text",
          "value": "org.apache.struts/struts2-core:2.5.1"
        }
      }
    },
    {
      "id": "e7e6155d5957d1cf134009500554c999ca7ac8f86190a772068f1817b7942424",
      "name": "RCE attack via REST plugin with XStream handler to deserialise XML requests",
      "description": "The REST Plugin in this package uses an `XStreamHandler` with an instance of `XStream` for deserialization without any type filtering, which can lead to Remote Code Execution when deserializing XML payloads.",
      "severity": "High",
      "solution": "Upgrade to the latest version",
      "location": {
        "file": "api/pom.xml",
        "dependency": {
          "package": {
            "name": "org.apache.struts/struts2-core"
          },
          "version": "2.5.1"
        }
      },
      "identifiers": [
        {
          "type": "gemnasium",
          "name": "Gemnasium-89b5fb8d-fe43-4eff-a831-d7fb71c039f0",
          "value": "89b5fb8d-fe43-4eff-a831-d7fb71c039f0",
          "url": "https://gitlab.com/gitlab-org/security-products/gemnasium-db/-/blob/v1.2.142/maven/org.apache.struts/struts2-core/CVE-2017-9805.yml"
        },
        {
          "type": "cve",
          "name": "CVE-2017-9805",
          "value": "CVE-2017-9805",
          "url": "https://cve.mitre.org/cgi-bin/cvename.cgi?name=CVE-2017-9805"
        }
      ],
      "links": [
        {
          "url": "https://access.redhat.com/security/cve/CVE-2017-9805"
        },
        {
          "url": "https://struts.apache.org/docs/s2-052.html"
        }
      ],
      "details": {
        "vulnerable_package": {
          "name": "Vulnerable Package",
          "type": "text",
          "value": "org.apache.struts/struts2-core:2.5.1"
        }
      }
    },
    {
      "id": "1de35f374ec7521df95081d5aeabb25d84481bb18bc5031cee7ae27e578edeaa",
      "name": "Denial Of Service",
      "description": "The REST Plugin is using XStream library which is vulnerable and allow perform a DoS attack when using a malicious request with specially crafted XML payload.",
      "severity": "High",
      "solution": "Upgrade to the latest version or use Jackson XML handler instead of the default XStream handler.",
      "location": {
        "file": "api/pom.xml",
        "dependency": {
          "package": {
            "name": "org.apache.struts/struts2-core"
          },
          "version": "2.5.1"
        }
      },
      "identifiers": [
        {
          "type": "gemnasium",
          "name": "Gemnasium-aabeb621-e659-4afa-9adc-957ed449a59a",
          "value": "aabeb621-e659-4afa-9adc-957ed449a59a",
          "url": "https://gitlab.com/gitlab-org/security-products/gemnasium-db/-/blob/v1.2.142/maven/org.apache.struts/struts2-core/CVE-2018-1327.yml"
        },
        {
          "type": "cve",
          "name": "CVE-2018-1327",
          "value": "CVE-2018-1327",
          "url": "https://cve.mitre.org/cgi-bin/cvename.cgi?name=CVE-2018-1327"
        }
      ],
      "links": [
        {
          "url": "https://access.redhat.com/security/cve/CVE-2018-1327"
        },
        {
          "url": "https://struts.apache.org/docs/s2-056.html"
        }
      ],
      "details": {
        "vulnerable_package": {
          "name": "Vulnerable Package",
          "type": "text",
          "value": "org.apache.struts/struts2-core:2.5.1"
        }
      }
    },
    {
      "id": "66e4ef44315d7686194f7c2ee63b99307cf6427c07d56b65134cf64407b62d67",
      "name": "Uncontrolled Resource Consumption",
      "description": "When using a Spring AOP functionality to secure Struts actions it is possible to perform a DoS attack.",
      "severity": "High",
      "solution": "Upgrade to versions 2.3.33, 2.5.12 or above.",
      "location": {
        "file": "api/pom.xml",
        "dependency": {
          "package": {
            "name": "org.apache.struts/struts2-core"
          },
          "version": "2.5.1"
        }
      },
      "identifiers": [
        {
          "type": "gemnasium",
          "name": "Gemnasium-e80fbd71-436a-4e23-8998-d383a224c79b",
          "value": "e80fbd71-436a-4e23-8998-d383a224c79b",
          "url": "https://gitlab.com/gitlab-org/security-products/gemnasium-db/-/blob/v1.2.142/maven/org.apache.struts/struts2-core/CVE-2017-9787.yml"
        },
        {
          "type": "cve",
          "name": "CVE-2017-9787",
          "value": "CVE-2017-9787",
          "url": "https://cve.mitre.org/cgi-bin/cvename.cgi?name=CVE-2017-9787"
        }
      ],
      "links": [
        {
          "url": "http://struts.apache.org/docs/s2-049.html"
        },
        {
          "url": "http://www.securityfocus.com/bid/99562"
        },
        {
          "url": "https://nvd.nist.gov/vuln/detail/CVE-2017-9787"
        }
      ],
      "details": {
        "vulnerable_package": {
          "name": "Vulnerable Package",
          "type": "text",
          "value": "org.apache.struts/struts2-core:2.5.1"
        }
      }
    },
    {
      "id": "44a9ebbc18adb7043111d1b96ca29cebbd03354041932abe47099044db411953",
      "name": "Improper Input Validation",
      "description": "If an application allows entering a URL in a form field and built-in `URLValidator` is used, it is possible to prepare a special URL which will be used to overload server process when performing validation of the URL.",
      "severity": "High",
      "solution": "Upgrade to versions 2.3.20.3, 2.3.24, 2.3.34, 2.5.13 or above.",
      "location": {
        "file": "api/pom.xml",
        "dependency": {
          "package": {
            "name": "org.apache.struts/struts2-core"
          },
          "version": "2.5.1"
        }
      },
      "identifiers": [
        {
          "type": "gemnasium",
          "name": "Gemnasium-f2025ae1-babd-47a8-857f-681ba395f798",
          "value": "f2025ae1-babd-47a8-857f-681ba395f798",
          "url": "https://gitlab.com/gitlab-org/security-products/gemnasium-db/-/blob/v1.2.142/maven/org.apache.struts/struts2-core/CVE-2017-9804.yml"
        },
        {
          "type": "cve",
          "name": "CVE-2017-9804",
          "value": "CVE-2017-9804",
          "url": "https://cve.mitre.org/cgi-bin/cvename.cgi?name=CVE-2017-9804"
        }
      ],
      "links": [
        {
          "url": "http://www.securityfocus.com/bid/100612"
        },
        {
          "url": "http://www.securitytracker.com/id/1039261"
        },
        {
          "url": "https://nvd.nist.gov/vuln/detail/CVE-2017-9804"
        },
        {
          "url": "https://struts.apache.org/docs/s2-050.html"
        }
      ],
      "details": {
        "vulnerable_package": {
          "name": "Vulnerable Package",
          "type": "text",
          "value": "org.apache.struts/struts2-core:2.5.1"
        }
      }
    },
    {
      "id": "294e79e72908ef2aa8bbc0bd409265a00a49f3a3b3613bb12a89e1a80ab6a04e",
      "name": "Infinite Loop for SSL Handler",
      "description": "`handler/ssl/OpenSslEngine.java` in this package allows remote attackers to cause a denial of service (infinite loop).",
      "severity": "High",
      "solution": "Upgrade to the latest version",
      "location": {
        "file": "model/pom.xml",
        "dependency": {
          "package": {
            "name": "io.netty/netty-all"
          },
          "version": "4.1.0.Final"
        }
      },
      "identifiers": [
        {
          "type": "gemnasium",
          "name": "Gemnasium-2760cba8-cfeb-4f93-9a8d-90efc3867570",
          "value": "2760cba8-cfeb-4f93-9a8d-90efc3867570",
          "url": "https://gitlab.com/gitlab-org/security-products/gemnasium-db/-/blob/v1.2.142/maven/io.netty/netty-all/CVE-2016-4970.yml"
        },
        {
          "type": "cve",
          "name": "CVE-2016-4970",
          "value": "CVE-2016-4970",
          "url": "https://cve.mitre.org/cgi-bin/cvename.cgi?name=CVE-2016-4970"
        }
      ],
      "links": [
        {
          "url": "http://netty.io/news/2016/06/07/4-0-37-Final.html"
        },
        {
          "url": "http://netty.io/news/2016/06/07/4-1-1-Final.html"
        }
      ],
      "details": {
        "vulnerable_package": {
          "name": "Vulnerable Package",
          "type": "text",
          "value": "io.netty/netty-all:4.1.0.Final"
        }
      }
    },
    {
      "id": "7a65576b1332d856ecd24d2b91fa5e4e2fd6051989f05ce219de87de7354b243",
      "name": "Inconsistent Interpretation of HTTP Requests (HTTP Request Smuggling)",
      "description": "Netty mishandles whitespace before the colon in HTTP headers (such as a `Transfer-Encoding : chunked` line), which leads to HTTP request smuggling.",
      "severity": "High",
      "solution": "Upgrade to version 4.1.42.Final or above.",
      "location": {
        "file": "model/pom.xml",
        "dependency": {
          "package": {
            "name": "io.netty/netty-all"
          },
          "version": "4.1.0.Final"
        }
      },
      "identifiers": [
        {
          "type": "gemnasium",
          "name": "Gemnasium-77bd807c-fbd2-4601-90d1-0a355f9c4d66",
          "value": "77bd807c-fbd2-4601-90d1-0a355f9c4d66",
          "url": "https://gitlab.com/gitlab-org/security-products/gemnasium-db/-/blob/v1.2.142/maven/io.netty/netty-all/CVE-2019-16869.yml"
        },
        {
          "type": "cve",
          "name": "CVE-2019-16869",
          "value": "CVE-2019-16869",
          "url": "https://cve.mitre.org/cgi-bin/cvename.cgi?name=CVE-2019-16869"
        }
      ],
      "links": [
        {
          "url": "https://github.com/netty/netty/issues/9571"
        },
        {
          "url": "https://nvd.nist.gov/vuln/detail/CVE-2019-16869"
        }
      ],
      "details": {
        "vulnerable_package": {
          "name": "Vulnerable Package",
          "type": "text",
          "value": "io.netty/netty-all:4.1.0.Final"
        }
      }
    },
    {
      "id": "a469e05bbc14d9c6ba245856f9888eb46fbb549b455ef63f0ee29a4740481c58",
      "name": "Infinite Loop for SSL Handler",
      "description": "`handler/ssl/OpenSslEngine.java` in this package allows remote attackers to cause a denial of service (infinite loop).",
      "severity": "High",
      "solution": "Upgrade to the latest version",
      "location": {
        "file": "pom.xml",
        "dependency": {
          "package": {
            "name": "io.netty/netty-all"
          },
          "version": "4.1.0.Final"
        }
      },
      "identifiers": [
        {
          "type": "gemnasium",
          "name": "Gemnasium-2760cba8-cfeb-4f93-9a8d-90efc3867570",
          "value": "2760cba8-cfeb-4f93-9a8d-90efc3867570",
          "url": "https://gitlab.com/gitlab-org/security-products/gemnasium-db/-/blob/v1.2.142/maven/io.netty/netty-all/CVE-2016-4970.yml"
        },
        {
          "type": "cve",
          "name": "CVE-2016-4970",
          "value": "CVE-2016-4970",
          "url": "https://cve.mitre.org/cgi-bin/cvename.cgi?name=CVE-2016-4970"
        }
      ],
      "links": [
        {
          "url": "http://netty.io/news/2016/06/07/4-0-37-Final.html"
        },
        {
          "url": "http://netty.io/news/2016/06/07/4-1-1-Final.html"
        }
      ],
      "details": {
        "vulnerable_package": {
          "name": "Vulnerable Package",
          "type": "text",
          "value": "io.netty/netty-all:4.1.0.Final"
        }
      }
    },
    {
      "id": "717437dfd13bfa9140d2d6be473f22d95c13e9ae4803b7b24d58a5252e405f7e",
      "name": "Inconsistent Interpretation of HTTP Requests (HTTP Request Smuggling)",
      "description": "Netty mishandles whitespace before the colon in HTTP headers (such as a `Transfer-Encoding : chunked` line), which leads to HTTP request smuggling.",
      "severity": "High",
      "solution": "Upgrade to version 4.1.42.Final or above.",
      "location": {
        "file": "pom.xml",
        "dependency": {
          "package": {
            "name": "io.netty/netty-all"
          },
          "version": "4.1.0.Final"
        }
      },
      "identifiers": [
        {
          "type": "gemnasium",
          "name": "Gemnasium-77bd807c-fbd2-4601-90d1-0a355f9c4d66",
          "value": "77bd807c-fbd2-4601-90d1-0a355f9c4d66",
          "url": "https://gitlab.com/gitlab-org/security-products/gemnasium-db/-/blob/v1.2.142/maven/io.netty/netty-all/CVE-2019-16869.yml"
        },
        {
          "type": "cve",
          "name": "CVE-2019-16869",
          "value": "CVE-2019-16869",
          "url": "https://cve.mitre.org/cgi-bin/cvename.cgi?name=CVE-2019-16869"
        }
      ],
      "links": [
        {
          "url": "https://github.com/netty/netty/issues/9571"
        },
        {
          "url": "https://nvd.nist.gov/vuln/detail/CVE-2019-16869"
        }
      ],
      "details": {
        "vulnerable_package": {
          "name": "Vulnerable Package",
          "type": "text",
          "value": "io.netty/netty-all:4.1.0.Final"
        }
      }
    },
    {
      "id": "6530621deec9b8adcc8db0d2afd16e9eb857f4d50e1a60e0f18eb42431fe8c6c",
      "name": "Improper Input Validation",
      "description": "If an application allows to enter an URL in a form field and built-in `URLValidator` is used, it is possible to prepare a special URL which will be used to overload server process when performing validation of the URL.",
      "severity": "Medium",
      "solution": "Upgrade to version 2.5.12 or above.",
      "location": {
        "file": "api/pom.xml",
        "dependency": {
          "package": {
            "name": "org.apache.struts/struts2-core"
          },
          "version": "2.5.1"
        }
      },
      "identifiers": [
        {
          "type": "gemnasium",
          "name": "Gemnasium-387195fc-1b16-4500-ac61-f4c84693da3c",
          "value": "387195fc-1b16-4500-ac61-f4c84693da3c",
          "url": "https://gitlab.com/gitlab-org/security-products/gemnasium-db/-/blob/v1.2.142/maven/org.apache.struts/struts2-core/CVE-2017-7672.yml"
        },
        {
          "type": "cve",
          "name": "CVE-2017-7672",
          "value": "CVE-2017-7672",
          "url": "https://cve.mitre.org/cgi-bin/cvename.cgi?name=CVE-2017-7672"
        }
      ],
      "links": [
        {
          "url": "http://struts.apache.org/docs/s2-047.html"
        },
        {
          "url": "http://www.securityfocus.com/bid/99563"
        },
        {
          "url": "https://nvd.nist.gov/vuln/detail/CVE-2017-7672"
        }
      ],
      "details": {
        "vulnerable_package": {
          "name": "Vulnerable Package",
          "type": "text",
          "value": "org.apache.struts/struts2-core:2.5.1"
        }
      }
    },
    {
      "id": "de23201407473c83e756b022adf159e55c2b8a14197b4cf0e8a43fd03bc1f51b",
      "name": "Improper Input Validation",
      "description": "In Apache Struts, if an application allows entering a URL in a form field and the built-in `URLValidator` is used, it is possible to prepare a special URL which will be used to overload server process when performing validation of the URL.",
      "severity": "Medium",
      "solution": "Upgrade to version 2.5.8 or above.",
      "location": {
        "file": "api/pom.xml",
        "dependency": {
          "package": {
            "name": "org.apache.struts/struts2-core"
          },
          "version": "2.5.1"
        }
      },
      "identifiers": [
        {
          "type": "gemnasium",
          "name": "Gemnasium-c0542489-61ed-4d59-908b-9727c811822f",
          "value": "c0542489-61ed-4d59-908b-9727c811822f",
          "url": "https://gitlab.com/gitlab-org/security-products/gemnasium-db/-/blob/v1.2.142/maven/org.apache.struts/struts2-core/CVE-2016-8738.yml"
        },
        {
          "type": "cve",
          "name": "CVE-2016-8738",
          "value": "CVE-2016-8738",
          "url": "https://cve.mitre.org/cgi-bin/cvename.cgi?name=CVE-2016-8738"
        }
      ],
      "links": [
        {
          "url": "http://www.securityfocus.com/bid/94657"
        },
        {
          "url": "https://nvd.nist.gov/vuln/detail/CVE-2016-8738"
        },
        {
          "url": "https://struts.apache.org/docs/s2-044.html"
        }
      ],
      "details": {
        "vulnerable_package": {
          "name": "Vulnerable Package",
          "type": "text",
          "value": "org.apache.struts/struts2-core:2.5.1"
        }
      }
    }
  ],
  "dependency_files": [
    {
      "path": "api/pom.xml",
      "package_manager": "maven",
      "dependencies": [
        {
          "package": {
            "name": "asm/asm"
          },
          "version": "3.3"
        },
        {
          "package": {
            "name": "asm/asm-commons"
          },
          "version": "3.3"
        },
        {
          "package": {
            "name": "asm/asm-tree"
          },
          "version": "3.3"
        },
        {
          "package": {
            "name": "com.gitlab.security_products.tests/model"
          },
          "version": "1.0-SNAPSHOT"
        },
        {
          "package": {
            "name": "commons-fileupload/commons-fileupload"
          },
          "version": "1.3.1"
        },
        {
          "package": {
            "name": "commons-io/commons-io"
          },
          "version": "2.4"
        },
        {
          "package": {
            "name": "io.netty/netty-all"
          },
          "version": "4.1.0.Final"
        },
        {
          "package": {
            "name": "junit/junit"
          },
          "version": "3.8.1"
        },
        {
          "package": {
            "name": "ognl/ognl"
          },
          "version": "3.1.8"
        },
        {
          "package": {
            "name": "org.apache.commons/commons-lang3"
          },
          "version": "3.4"
        },
        {
          "package": {
            "name": "org.apache.logging.log4j/log4j-api"
          },
          "version": "2.5"
        },
        {
          "package": {
            "name": "org.apache.logging.log4j/log4j-core"
          },
          "version": "2.8.2"
        },
        {
          "package": {
            "name": "org.apache.struts/struts2-core"
          },
          "version": "2.5.1"
        },
        {
          "package": {
            "name": "org.freemarker/freemarker"
          },
          "version": "2.3.23"
        },
        {
          "package": {
            "name": "org.javassist/javassist"
          },
          "version": "3.20.0-GA"
        }
      ]
    },
    {
      "path": "model/pom.xml",
      "package_manager": "maven",
      "dependencies": [
        {
          "package": {
            "name": "io.netty/netty-all"
          },
          "version": "4.1.0.Final"
        },
        {
          "package": {
            "name": "junit/junit"
          },
          "version": "3.8.1"
        },
        {
          "package": {
            "name": "org.apache.logging.log4j/log4j-api"
          },
          "version": "2.8.2"
        },
        {
          "package": {
            "name": "org.apache.logging.log4j/log4j-core"
          },
          "version": "2.8.2"
        }
      ]
    },
    {
      "path": "pom.xml",
      "package_manager": "maven",
      "dependencies": [
        {
          "package": {
            "name": "io.netty/netty-all"
          },
          "version": "4.1.0.Final"
        },
        {
          "package": {
            "name": "junit/junit"
          },
          "version": "3.8.1"
        }
      ]
    }
  ],
  "scan": {
    "analyzer": {
      "id": "gemnasium-maven",
      "name": "gemnasium-maven",
      "url": "https://gitlab.com/gitlab-org/security-products/analyzers/gemnasium",
      "vendor": {
        "name": "GitLab"
      },
      "version": "3.6.0"
    },
    "scanner": {
      "id": "gemnasium-maven",
      "name": "gemnasium-maven",
      "url": "https://gitlab.com/gitlab-org/security-products/analyzers/gemnasium",
      "vendor": {
        "name": "GitLab"
      },
      "version": "2.24.8"
    },
    "type": "dependency_scanning",
    "start_time": "2022-02-18T02:17:54",
    "end_time": "2022-02-18T02:18:25",
    "status": "success"
  }
}
