{
  "version": "15.0.4",
  "vulnerabilities": [
    {
      "id": "2469fa54bd2cfd62163a907a8923b656885f514878c24ad126ac7ecceb009f52",
      "name": "Allocation of File Descriptors or Handles Without Limits or Throttling",
      "description": "Minio a Allocation of Memory Without Limits or Throttling vulnerability in write-to-RAM.",
      "severity": "High",
      "solution": "Unfortunately, there is no solution available yet.",
      "location": {
        "file": "go.mod",
        "dependency": {
          "package": {
            "name": "github.com/minio/minio"
          },
          "version": "v0.0.0-20180419184637-5a16671f721f"
        }
      },
      "identifiers": [
        {
          "type": "gemnasium",
          "name": "Gemnasium-051e7fdd-4e0a-4dfd-ba52-083ee235a580",
          "value": "051e7fdd-4e0a-4dfd-ba52-083ee235a580",
          "url": "https://gitlab.com/gitlab-org/security-products/gemnasium-db/-/blob/v1.2.142/go/github.com/minio/minio/CVE-2018-1000538.yml"
        },
        {
          "type": "cve",
          "name": "CVE-2018-1000538",
          "value": "CVE-2018-1000538",
          "url": "https://cve.mitre.org/cgi-bin/cvename.cgi?name=CVE-2018-1000538"
        }
      ],
      "links": [
        {
          "url": "https://github.com/minio/minio/pull/5957"
        },
        {
          "url": "https://nvd.nist.gov/vuln/detail/CVE-2018-1000538"
        }
      ],
      "details": {
        "vulnerable_package": {
          "type": "text",
          "name": "Vulnerable Package",
          "value": "github.com/minio/minio:v0.0.0-20180419184637-5a16671f721f"
        }
      }
    },
    {
      "id": "050e975be58be7b10a8b542e3e6a1d8e24727e6065f83290c8f3ba90158d9f83",
      "name": "Improper Authentication",
      "description": "MinIO versions before has an authentication bypass issue in the MinIO admin API. Given an admin access key, it is possible to perform admin API operations, i.e., creating new service accounts for existing access keys without knowing the admin secret key.",
      "severity": "High",
      "solution": "Upgrade to version RELEASE.2020-04-23T00-58-49Z or above.",
      "location": {
        "file": "go.mod",
        "dependency": {
          "package": {
            "name": "github.com/minio/minio"
          },
          "version": "v0.0.0-20180419184637-5a16671f721f"
        }
      },
      "identifiers": [
        {
          "type": "gemnasium",
          "name": "Gemnasium-216192fe-2efa-4c52-addd-4bf3522c2b69",
          "value": "216192fe-2efa-4c52-addd-4bf3522c2b69",
          "url": "https://gitlab.com/gitlab-org/security-products/gemnasium-db/-/blob/v1.2.142/go/github.com/minio/minio/CVE-2020-11012.yml"
        },
        {
          "type": "cve",
          "name": "CVE-2020-11012",
          "value": "CVE-2020-11012",
          "url": "https://cve.mitre.org/cgi-bin/cvename.cgi?name=CVE-2020-11012"
        }
      ],
      "links": [
        {
          "url": "https://nvd.nist.gov/vuln/detail/CVE-2020-11012"
        }
      ],
      "details": {
        "vulnerable_package": {
          "type": "text",
          "name": "Vulnerable Package",
          "value": "github.com/minio/minio:v0.0.0-20180419184637-5a16671f721f"
        }
      }
    }
  ],
  "dependency_files": [
    {
      "path": "go.mod",
      "package_manager": "go",
      "dependencies": [
        {
          "package": {
            "name": "github.com/konsorten/go-windows-terminal-sequences"
          },
          "version": "v1.0.1"
        },
        {
          "package": {
            "name": "github.com/minio/minio"
          },
          "version": "v0.0.0-20180419184637-5a16671f721f"
        },
        {
          "package": {
            "name": "github.com/minio/minio-go"
          },
          "version": "v6.0.14+incompatible"
        },
        {
          "package": {
            "name": "github.com/minio/sha256-simd"
          },
          "version": "v0.1.1"
        },
        {
          "package": {
            "name": "github.com/sirupsen/logrus"
          },
          "version": "v1.4.2"
        }
      ]
    }
  ],
  "scan": {
    "analyzer": {
      "id": "gemnasium",
      "name": "Gemnasium",
      "url": "https://gitlab.com/gitlab-org/security-products/analyzers/gemnasium",
      "vendor": {
        "name": "GitLab"
      },
      "version": "3.9.3"
    },
    "scanner": {
      "id": "gemnasium",
      "name": "Gemnasium",
      "url": "https://gitlab.com/gitlab-org/security-products/analyzers/gemnasium",
      "vendor": {
        "name": "GitLab"
      },
      "version": "3.9.3"
    },
    "type": "dependency_scanning",
    "start_time": "2022-09-23T17:53:06",
    "end_time": "2022-09-23T17:53:09",
    "status": "success"
  }
}
