[
  {
    "name": "org.apache.logging.log4j/log4j-api",
    "version": "2.6.1"
  },
  {
    "name": "org.apache.geode/geode-core",
    "version": "1.1.1"
  },
  {
    "name": "org.jgroups/jgroups",
    "version": "3.6.10.Final"
  },
  {
    "name": "commons-io/commons-io",
    "version": "2.3"
  },
  {
    "name": "org.apache.shiro/shiro-core",
    "version": "1.3.1"
  },
  {
    "name": "org.slf4j/slf4j-api",
    "version": "1.6.4"
  },
  {
    "name": "javax.resource/javax.resource-api",
    "version": "1.7"
  },
  {
    "name": "javax.transaction/javax.transaction-api",
    "version": "1.2"
  },
  {
    "name": "antlr/antlr",
    "version": "2.7.7"
  },
  {
    "name": "commons-beanutils/commons-beanutils",
    "version": "1.8.3"
  },
  {
    "name": "org.apache.geode/geode-common",
    "version": "1.1.1"
  },
  {
    "name": "com.fasterxml.jackson.core/jackson-core",
    "version": "2.9.2"
  },
  {
    "name": "org.apache.geode/geode-json",
    "version": "1.1.1"
  },
  {
    "name": "net.java.dev.jna/jna",
    "version": "4.0.0"
  },
  {
    "name": "it.unimi.dsi/fastutil",
    "version": "7.0.2"
  },
  {
    "name": "com.fasterxml.jackson.core/jackson-databind",
    "version": "2.9.2"
  },
  {
    "name": "org.apache.logging.log4j/log4j-core",
    "version": "2.6.1"
  },
  {
    "name": "org.mozilla/rhino",
    "version": "1.7.10"
  },
  {
    "name": "com.fasterxml.jackson.core/jackson-annotations",
    "version": "2.9.0"
  },
  {
    "name": "commons-lang/commons-lang",
    "version": "2.5"
  },
  {
    "name": "net.sf.jopt-simple/jopt-simple",
    "version": "5.0.1"
  },
  {
    "name": "com.github.stephenc.findbugs/findbugs-annotations",
    "version": "1.3.9-1"
  }
]
