{
  "version": "15.0.4",
  "vulnerabilities": [],
  "dependency_files": [
    {
      "path": "build.gradle",
      "package_manager": "gradle",
      "dependencies": [
        {
          "package": {
            "name": "com.beust/jcommander"
          },
          "version": "1.78"
        },
        {
          "package": {
            "name": "com.github.javaparser/javaparser-core"
          },
          "version": "3.18.0"
        },
        {
          "package": {
            "name": "com.thoughtworks.qdox/qdox"
          },
          "version": "1.12.1"
        },
        {
          "package": {
            "name": "info.picocli/picocli"
          },
          "version": "4.5.2"
        },
        {
          "package": {
            "name": "jline/jline"
          },
          "version": "2.14.6"
        },
        {
          "package": {
            "name": "junit/junit"
          },
          "version": "4.13.2"
        },
        {
          "package": {
            "name": "org.apache.ant/ant"
          },
          "version": "1.10.9"
        },
        {
          "package": {
            "name": "org.apache.ant/ant-antlr"
          },
          "version": "1.10.9"
        },
        {
          "package": {
            "name": "org.apache.ant/ant-junit"
          },
          "version": "1.10.9"
        },
        {
          "package": {
            "name": "org.apache.ant/ant-launcher"
          },
          "version": "1.10.9"
        },
        {
          "package": {
            "name": "org.codehaus.groovy/groovy"
          },
          "version": "3.0.8"
        },
        {
          "package": {
            "name": "org.codehaus.groovy/groovy-all"
          },
          "version": "3.0.8"
        },
        {
          "package": {
            "name": "org.codehaus.groovy/groovy-ant"
          },
          "version": "3.0.8"
        },
        {
          "package": {
            "name": "org.codehaus.groovy/groovy-astbuilder"
          },
          "version": "3.0.8"
        },
        {
          "package": {
            "name": "org.codehaus.groovy/groovy-cli-picocli"
          },
          "version": "3.0.8"
        },
        {
          "package": {
            "name": "org.codehaus.groovy/groovy-console"
          },
          "version": "3.0.8"
        },
        {
          "package": {
            "name": "org.codehaus.groovy/groovy-datetime"
          },
          "version": "3.0.8"
        },
        {
          "package": {
            "name": "org.codehaus.groovy/groovy-docgenerator"
          },
          "version": "3.0.8"
        },
        {
          "package": {
            "name": "org.codehaus.groovy/groovy-groovydoc"
          },
          "version": "3.0.8"
        },
        {
          "package": {
            "name": "org.codehaus.groovy/groovy-groovysh"
          },
          "version": "3.0.8"
        },
        {
          "package": {
            "name": "org.codehaus.groovy/groovy-jmx"
          },
          "version": "3.0.8"
        },
        {
          "package": {
            "name": "org.codehaus.groovy/groovy-json"
          },
          "version": "3.0.8"
        },
        {
          "package": {
            "name": "org.codehaus.groovy/groovy-jsr223"
          },
          "version": "3.0.8"
        },
        {
          "package": {
            "name": "org.codehaus.groovy/groovy-macro"
          },
          "version": "3.0.8"
        },
        {
          "package": {
            "name": "org.codehaus.groovy/groovy-nio"
          },
          "version": "3.0.8"
        },
        {
          "package": {
            "name": "org.codehaus.groovy/groovy-servlet"
          },
          "version": "3.0.8"
        },
        {
          "package": {
            "name": "org.codehaus.groovy/groovy-sql"
          },
          "version": "3.0.8"
        },
        {
          "package": {
            "name": "org.codehaus.groovy/groovy-swing"
          },
          "version": "3.0.8"
        },
        {
          "package": {
            "name": "org.codehaus.groovy/groovy-templates"
          },
          "version": "3.0.8"
        },
        {
          "package": {
            "name": "org.codehaus.groovy/groovy-test"
          },
          "version": "3.0.8"
        },
        {
          "package": {
            "name": "org.codehaus.groovy/groovy-test-junit5"
          },
          "version": "3.0.8"
        },
        {
          "package": {
            "name": "org.codehaus.groovy/groovy-testng"
          },
          "version": "3.0.8"
        },
        {
          "package": {
            "name": "org.codehaus.groovy/groovy-xml"
          },
          "version": "3.0.8"
        },
        {
          "package": {
            "name": "org.hamcrest/hamcrest-core"
          },
          "version": "1.3"
        },
        {
          "package": {
            "name": "org.junit.jupiter/junit-jupiter-api"
          },
          "version": "5.7.0"
        },
        {
          "package": {
            "name": "org.junit.jupiter/junit-jupiter-engine"
          },
          "version": "5.7.0"
        },
        {
          "package": {
            "name": "org.junit.platform/junit-platform-commons"
          },
          "version": "1.7.0"
        },
        {
          "package": {
            "name": "org.junit.platform/junit-platform-engine"
          },
          "version": "1.7.0"
        },
        {
          "package": {
            "name": "org.junit.platform/junit-platform-launcher"
          },
          "version": "1.7.0"
        },
        {
          "package": {
            "name": "org.junit/junit-bom"
          },
          "version": "5.7.0"
        },
        {
          "package": {
            "name": "org.opentest4j/opentest4j"
          },
          "version": "1.2.0"
        },
        {
          "package": {
            "name": "org.testng/testng"
          },
          "version": "7.4.0"
        },
        {
          "package": {
            "name": "org.webjars/jquery"
          },
          "version": "3.5.1"
        }
      ]
    }
  ],
  "scan": {
    "analyzer": {
      "id": "gemnasium-maven",
      "name": "gemnasium-maven",
      "url": "https://gitlab.com/gitlab-org/security-products/analyzers/gemnasium",
      "vendor": {
        "name": "GitLab"
      },
      "version": "3.6.0"
    },
    "scanner": {
      "id": "gemnasium-maven",
      "name": "gemnasium-maven",
      "url": "https://gitlab.com/gitlab-org/security-products/analyzers/gemnasium",
      "vendor": {
        "name": "GitLab"
      },
      "version": "2.27.4"
    },
    "type": "dependency_scanning",
    "start_time": "2022-03-21T04:09:28",
    "end_time": "2022-03-21T04:09:47",
    "status": "success"
  }
}
