{
  "bomFormat": "CycloneDX",
  "specVersion": "1.4",
  "serialNumber": "urn:uuid:47597c22-82b4-4c5b-b2ae-faa81d99fd53",
  "version": 1,
  "metadata": {
    "timestamp": "2023-05-01T22:28:45Z",
    "tools": [
      {
        "vendor": "GitLab",
        "name": "Gemnasium",
        "version": "4.0.0-rc.3"
      }
    ],
    "authors": [
      {
        "name": "GitLab",
        "email": "support@gitlab.com"
      }
    ],
    "properties": [
      {
        "name": "gitlab:dependency_scanning:input_file",
        "value": "Pipfile"
      },
      {
        "name": "gitlab:dependency_scanning:input_file:path",
        "value": "Pipfile"
      },
      {
        "name": "gitlab:dependency_scanning:package_manager",
        "value": "pipenv"
      },
      {
        "name": "gitlab:dependency_scanning:package_manager:name",
        "value": "pipenv"
      },
      {
        "name": "gitlab:meta:schema_version",
        "value": "1"
      }
    ]
  },
  "components": [
    {
      "name": "Django",
      "version": "1.11.3",
      "purl": "pkg:pypi/Django@1.11.3",
      "type": "library",
      "bom-ref": "pkg:pypi/Django@1.11.3"
    },
    {
      "name": "docutils",
      "version": "0.13.1",
      "purl": "pkg:pypi/docutils@0.13.1",
      "type": "library",
      "bom-ref": "pkg:pypi/docutils@0.13.1"
    },
    {
      "name": "pytz",
      "version": ":SKIP:",
      "purl": ":SKIP:",
      "type": "library",
      "bom-ref": ":SKIP:"
    },
    {
      "name": "requests",
      "version": "2.5.3",
      "purl": "pkg:pypi/requests@2.5.3",
      "type": "library",
      "bom-ref": "pkg:pypi/requests@2.5.3"
    }
  ]
}
