{
  "version": "15.0.4",
  "vulnerabilities": [
    {
      "id": "9038f70bc0ea8c26a3d8fcac78d1bb7cc5db0aadf24593dd4d613dfcfc0fc98d",
      "name": "Command Injection",
      "description": "An attacker can use the format parameter to inject arbitrary commands in the npm package morgan.",
      "severity": "Critical",
      "solution": "Upgrade to version 1.9.1 or above.",
      "location": {
        "file": "yarn.lock",
        "dependency": {
          "package": {
            "name": "morgan"
          },
          "version": "1.6.1"
        }
      },
      "identifiers": [
        {
          "type": "gemnasium",
          "name": "Gemnasium-79ad9fa9-4839-4917-8ca6-28734a125202",
          "value": "79ad9fa9-4839-4917-8ca6-28734a125202",
          "url": "https://gitlab.com/gitlab-org/security-products/gemnasium-db/-/blob/v1.2.142/npm/morgan/CVE-2019-5413.yml"
        },
        {
          "type": "cve",
          "name": "CVE-2019-5413",
          "value": "CVE-2019-5413",
          "url": "https://cve.mitre.org/cgi-bin/cvename.cgi?name=CVE-2019-5413"
        }
      ],
      "links": [
        {
          "url": "https://nvd.nist.gov/vuln/detail/CVE-2019-5413"
        }
      ],
      "details": {
        "vulnerable_package": {
          "type": "text",
          "name": "Vulnerable Package",
          "value": "morgan:1.6.1"
        }
      }
    },
    {
      "id": "b629b04863bb686207f1191d1d53acac11b880f879128e159bf9cfc5afb1c7fe",
      "name": "Uncontrolled Resource Consumption",
      "description": "Fresh is a module used by the Express.js framework for HTTP response freshness testing. It is vulnerable to a regular expression denial of service when it is passed specially crafted input to parse. This causes the event loop to be blocked causing a denial of service condition.",
      "severity": "High",
      "solution": "Upgrade to version 0.5.2 or above.",
      "location": {
        "file": "yarn.lock",
        "dependency": {
          "package": {
            "name": "fresh"
          },
          "version": "0.3.0"
        }
      },
      "identifiers": [
        {
          "type": "gemnasium",
          "name": "Gemnasium-5414af48-823c-4a29-a777-e215dd3a9577",
          "value": "5414af48-823c-4a29-a777-e215dd3a9577",
          "url": "https://gitlab.com/gitlab-org/security-products/gemnasium-db/-/blob/v1.2.142/npm/fresh/CVE-2017-16119.yml"
        },
        {
          "type": "cve",
          "name": "CVE-2017-16119",
          "value": "CVE-2017-16119",
          "url": "https://cve.mitre.org/cgi-bin/cvename.cgi?name=CVE-2017-16119"
        }
      ],
      "links": [
        {
          "url": "https://nvd.nist.gov/vuln/detail/CVE-2017-16119"
        }
      ],
      "details": {
        "vulnerable_package": {
          "type": "text",
          "name": "Vulnerable Package",
          "value": "fresh:0.3.0"
        }
      }
    },
    {
      "id": "7ba0afe77e8eb2e3f51d7d158d52be10b6d8e4a62ef9b42e0a35f4e33d8b807f",
      "name": "Uncontrolled Resource Consumption",
      "description": "The mime module is vulnerable to regular expression denial of service when a mime lookup is performed on untrusted user input.",
      "severity": "High",
      "solution": "Upgrade to versions 1.4.1, 2.0.3 or above.",
      "location": {
        "file": "yarn.lock",
        "dependency": {
          "package": {
            "name": "mime"
          },
          "version": "1.3.4"
        }
      },
      "identifiers": [
        {
          "type": "gemnasium",
          "name": "Gemnasium-f0977c0b-d487-40b1-a505-cda9037cac51",
          "value": "f0977c0b-d487-40b1-a505-cda9037cac51",
          "url": "https://gitlab.com/gitlab-org/security-products/gemnasium-db/-/blob/v1.2.142/npm/mime/CVE-2017-16138.yml"
        },
        {
          "type": "cve",
          "name": "CVE-2017-16138",
          "value": "CVE-2017-16138",
          "url": "https://cve.mitre.org/cgi-bin/cvename.cgi?name=CVE-2017-16138"
        }
      ],
      "links": [
        {
          "url": "https://nvd.nist.gov/vuln/detail/CVE-2017-16138"
        }
      ],
      "details": {
        "vulnerable_package": {
          "type": "text",
          "name": "Vulnerable Package",
          "value": "mime:1.3.4"
        }
      }
    },
    {
      "id": "1b28a6026b40dba4e20ee4e141c3eeb9e542eafbd386b3363b75704ddb2795d2",
      "name": "Improper Input Validation",
      "description": "The qs module is vulnerable to a DoS. A malicious user can send an evil request to cause the web framework crash.",
      "severity": "High",
      "solution": "Upgrade to versions 1.2.2, 6.0.4, 6.1.2, 6.2.3, 6.3.2 or above.",
      "location": {
        "file": "yarn.lock",
        "dependency": {
          "package": {
            "name": "qs"
          },
          "version": "4.0.0"
        }
      },
      "identifiers": [
        {
          "type": "gemnasium",
          "name": "Gemnasium-3b2aab12-b697-40c2-b917-92ab14b878e9",
          "value": "3b2aab12-b697-40c2-b917-92ab14b878e9",
          "url": "https://gitlab.com/gitlab-org/security-products/gemnasium-db/-/blob/v1.2.142/npm/qs/CVE-2017-1000048.yml"
        },
        {
          "type": "cve",
          "name": "CVE-2017-1000048",
          "value": "CVE-2017-1000048",
          "url": "https://cve.mitre.org/cgi-bin/cvename.cgi?name=CVE-2017-1000048"
        }
      ],
      "links": [
        {
          "url": "https://nvd.nist.gov/vuln/detail/CVE-2017-1000048"
        }
      ],
      "details": {
        "vulnerable_package": {
          "type": "text",
          "name": "Vulnerable Package",
          "value": "qs:4.0.0"
        }
      }
    },
    {
      "id": "726475adc47e8f0a495fc365b7c985f5dc82983e91c5fe5d962bec8281077e57",
      "name": "Uncontrolled Resource Consumption",
      "description": "The debug module is vulnerable to regular expression denial of service when untrusted user input is passed into the `o` formatter. It takes around 50k characters to block for 2 seconds making this a low severity issue.",
      "severity": "Medium",
      "solution": "Upgrade to versions 2.6.9, 3.1.0 or above.",
      "location": {
        "file": "yarn.lock",
        "dependency": {
          "package": {
            "name": "debug"
          },
          "version": "2.2.0"
        }
      },
      "identifiers": [
        {
          "type": "gemnasium",
          "name": "Gemnasium-90650124-5f0d-49bd-9819-a370df202231",
          "value": "90650124-5f0d-49bd-9819-a370df202231",
          "url": "https://gitlab.com/gitlab-org/security-products/gemnasium-db/-/blob/v1.2.142/npm/debug/CVE-2017-16137.yml"
        },
        {
          "type": "cve",
          "name": "CVE-2017-16137",
          "value": "CVE-2017-16137",
          "url": "https://cve.mitre.org/cgi-bin/cvename.cgi?name=CVE-2017-16137"
        }
      ],
      "links": [
        {
          "url": "https://nvd.nist.gov/vuln/detail/CVE-2017-16137"
        }
      ],
      "details": {
        "vulnerable_package": {
          "type": "text",
          "name": "Vulnerable Package",
          "value": "debug:2.2.0"
        }
      }
    },
    {
      "id": "6f293f3850cf77ea2e4aee185aab642318b953a2393a1cc18b7339986344684e",
      "name": "Improper Input Validation",
      "description": "minimist could be tricked into adding or modifying properties of `Object.prototype` using a `constructor` or `__proto__` payload.",
      "severity": "Medium",
      "solution": "Upgrade to version 1.2.2 or above.",
      "location": {
        "file": "yarn.lock",
        "dependency": {
          "package": {
            "name": "minimist"
          },
          "version": "0.0.8"
        }
      },
      "identifiers": [
        {
          "type": "gemnasium",
          "name": "Gemnasium-53e8766c-27eb-4278-8c4f-3dcef53a68bf",
          "value": "53e8766c-27eb-4278-8c4f-3dcef53a68bf",
          "url": "https://gitlab.com/gitlab-org/security-products/gemnasium-db/-/blob/v1.2.142/npm/minimist/CVE-2020-7598.yml"
        },
        {
          "type": "cve",
          "name": "CVE-2020-7598",
          "value": "CVE-2020-7598",
          "url": "https://cve.mitre.org/cgi-bin/cvename.cgi?name=CVE-2020-7598"
        }
      ],
      "links": [
        {
          "url": "https://nvd.nist.gov/vuln/detail/CVE-2020-7598"
        }
      ],
      "details": {
        "vulnerable_package": {
          "type": "text",
          "name": "Vulnerable Package",
          "value": "minimist:0.0.8"
        }
      }
    },
    {
      "id": "b96efffa93422b16969103b7d953b262f46326a4b3ebd1c9927c1a698c64df00",
      "name": "Regular Expression Denial of Service",
      "description": "The debug module is vulnerable to regular expression denial of service when untrusted user input is passed into the `o` formatter. It takes around 50k characters to block for 2 seconds making this a low severity issue.",
      "severity": "Unknown",
      "solution": "Upgrade to latest versions.",
      "location": {
        "file": "yarn.lock",
        "dependency": {
          "package": {
            "name": "debug"
          },
          "version": "2.2.0"
        }
      },
      "identifiers": [
        {
          "type": "gemnasium",
          "name": "Gemnasium-37283ed4-0380-40d7-ada7-2d994afcc62a",
          "value": "37283ed4-0380-40d7-ada7-2d994afcc62a",
          "url": "https://gitlab.com/gitlab-org/security-products/gemnasium-db/-/blob/v1.2.142/npm/debug/GMS-2017-248.yml"
        }
      ],
      "links": [
        {
          "url": "https://github.com/visionmedia/debug/issues/501"
        },
        {
          "url": "https://github.com/visionmedia/debug/pull/504"
        },
        {
          "url": "https://nodesecurity.io/advisories/534"
        }
      ],
      "details": {
        "vulnerable_package": {
          "type": "text",
          "name": "Vulnerable Package",
          "value": "debug:2.2.0"
        }
      }
    },
    {
      "id": "7d8af6d444e1ff535768d503f7548c9be4caf970e0b2fe122980ecafd1556325",
      "name": "Regular Expression Denial of Service",
      "description": "Fresh is vulnerable to a regular expression denial of service when it is passed specially crafted input to parse. This causes the event loop to be blocked causing a denial of service condition.",
      "severity": "Unknown",
      "solution": "Upgrade to latest version. If you are using this module via express, upgrade to Express version 4.15.5 or greater.",
      "location": {
        "file": "yarn.lock",
        "dependency": {
          "package": {
            "name": "fresh"
          },
          "version": "0.3.0"
        }
      },
      "identifiers": [
        {
          "type": "gemnasium",
          "name": "Gemnasium-a45dd12c-da38-4119-a6a7-1e0b3f9d5d44",
          "value": "a45dd12c-da38-4119-a6a7-1e0b3f9d5d44",
          "url": "https://gitlab.com/gitlab-org/security-products/gemnasium-db/-/blob/v1.2.142/npm/fresh/GMS-2017-232.yml"
        }
      ],
      "links": [
        {
          "url": "https://nodesecurity.io/advisories/526"
        }
      ],
      "details": {
        "vulnerable_package": {
          "type": "text",
          "name": "Vulnerable Package",
          "value": "fresh:0.3.0"
        }
      }
    },
    {
      "id": "dda3bf1d73cb76ca234928469f80e29df0730787acb5f283aa5ef833e73049e7",
      "name": "Regular Expression Denial of Service",
      "description": "The mime module is vulnerable to regular expression denial of service when a mime lookup is performed on untrusted user input.",
      "severity": "Unknown",
      "solution": "Upgrade to version 2.0.3 or greater.",
      "location": {
        "file": "yarn.lock",
        "dependency": {
          "package": {
            "name": "mime"
          },
          "version": "1.3.4"
        }
      },
      "identifiers": [
        {
          "type": "gemnasium",
          "name": "Gemnasium-6c482efa-d68b-44eb-97d3-c2bf5fd542be",
          "value": "6c482efa-d68b-44eb-97d3-c2bf5fd542be",
          "url": "https://gitlab.com/gitlab-org/security-products/gemnasium-db/-/blob/v1.2.142/npm/mime/GMS-2017-247.yml"
        }
      ],
      "links": [
        {
          "url": "https://github.com/broofa/node-mime/issues/167"
        },
        {
          "url": "https://nodesecurity.io/advisories/535"
        }
      ],
      "details": {
        "vulnerable_package": {
          "type": "text",
          "name": "Vulnerable Package",
          "value": "mime:1.3.4"
        }
      }
    },
    {
      "id": "848f47d9ff78277788c38ba4c6ad2824d27d351be18e7174fd5fdbc51daf32e1",
      "name": "Regular Expression Denial of Service",
      "description": "The header for \"Accept-Language\", when parsed by negotiator is vulnerable to Regular Expression Denial of Service via a specially crafted string. ",
      "severity": "Unknown",
      "solution": "Upgrade to latest version.",
      "location": {
        "file": "yarn.lock",
        "dependency": {
          "package": {
            "name": "negotiator"
          },
          "version": "0.5.3"
        }
      },
      "identifiers": [
        {
          "type": "gemnasium",
          "name": "Gemnasium-02f81bf9-e514-4530-a87b-9baa9cb33515",
          "value": "02f81bf9-e514-4530-a87b-9baa9cb33515",
          "url": "https://gitlab.com/gitlab-org/security-products/gemnasium-db/-/blob/v1.2.142/npm/negotiator/GMS-2016-35.yml"
        }
      ],
      "links": [
        {
          "url": "https://nodesecurity.io/advisories/106"
        }
      ],
      "details": {
        "vulnerable_package": {
          "type": "text",
          "name": "Vulnerable Package",
          "value": "negotiator:0.5.3"
        }
      }
    }
  ],
  "dependency_files": [
    {
      "path": "yarn.lock",
      "package_manager": "yarn",
      "dependencies": [
        {
          "package": {
            "name": "accepts"
          },
          "version": "1.2.13"
        },
        {
          "package": {
            "name": "accepts"
          },
          "version": "1.3.8"
        },
        {
          "package": {
            "name": "base64-url"
          },
          "version": "1.2.1"
        },
        {
          "package": {
            "name": "basic-auth"
          },
          "version": "1.0.4"
        },
        {
          "package": {
            "name": "basic-auth-connect"
          },
          "version": "1.0.0"
        },
        {
          "package": {
            "name": "batch"
          },
          "version": "0.5.3"
        },
        {
          "package": {
            "name": "body-parser"
          },
          "version": "1.13.3"
        },
        {
          "package": {
            "name": "bytes"
          },
          "version": "2.1.0"
        },
        {
          "package": {
            "name": "bytes"
          },
          "version": "2.4.0"
        },
        {
          "package": {
            "name": "commander"
          },
          "version": "2.6.0"
        },
        {
          "package": {
            "name": "compressible"
          },
          "version": "2.0.18"
        },
        {
          "package": {
            "name": "compression"
          },
          "version": "1.5.2"
        },
        {
          "package": {
            "name": "connect"
          },
          "version": "2.30.2"
        },
        {
          "package": {
            "name": "connect-timeout"
          },
          "version": "1.6.2"
        },
        {
          "package": {
            "name": "content-disposition"
          },
          "version": "0.5.0"
        },
        {
          "package": {
            "name": "content-type"
          },
          "version": "1.0.5"
        },
        {
          "package": {
            "name": "cookie"
          },
          "version": "0.1.3"
        },
        {
          "package": {
            "name": "cookie-parser"
          },
          "version": "1.3.5"
        },
        {
          "package": {
            "name": "cookie-signature"
          },
          "version": "1.0.6"
        },
        {
          "package": {
            "name": "core-util-is"
          },
          "version": "1.0.3"
        },
        {
          "package": {
            "name": "crc"
          },
          "version": "3.3.0"
        },
        {
          "package": {
            "name": "csrf"
          },
          "version": "3.0.6"
        },
        {
          "package": {
            "name": "csurf"
          },
          "version": "1.8.3"
        },
        {
          "package": {
            "name": "debug"
          },
          "version": "2.2.0"
        },
        {
          "package": {
            "name": "debug"
          },
          "version": "2.6.9"
        },
        {
          "package": {
            "name": "depd"
          },
          "version": "1.0.1"
        },
        {
          "package": {
            "name": "depd"
          },
          "version": "1.1.2"
        },
        {
          "package": {
            "name": "destroy"
          },
          "version": "1.0.3"
        },
        {
          "package": {
            "name": "destroy"
          },
          "version": "1.0.4"
        },
        {
          "package": {
            "name": "ee-first"
          },
          "version": "1.1.1"
        },
        {
          "package": {
            "name": "errorhandler"
          },
          "version": "1.4.3"
        },
        {
          "package": {
            "name": "escape-html"
          },
          "version": "1.0.2"
        },
        {
          "package": {
            "name": "escape-html"
          },
          "version": "1.0.3"
        },
        {
          "package": {
            "name": "etag"
          },
          "version": "1.7.0"
        },
        {
          "package": {
            "name": "express"
          },
          "version": "3.21.2"
        },
        {
          "package": {
            "name": "express-session"
          },
          "version": "1.11.3"
        },
        {
          "package": {
            "name": "finalhandler"
          },
          "version": "0.4.0"
        },
        {
          "package": {
            "name": "forwarded"
          },
          "version": "0.1.2"
        },
        {
          "package": {
            "name": "fresh"
          },
          "version": "0.3.0"
        },
        {
          "package": {
            "name": "http-errors"
          },
          "version": "1.3.1"
        },
        {
          "package": {
            "name": "iconv-lite"
          },
          "version": "0.4.11"
        },
        {
          "package": {
            "name": "iconv-lite"
          },
          "version": "0.4.13"
        },
        {
          "package": {
            "name": "inherits"
          },
          "version": "2.0.4"
        },
        {
          "package": {
            "name": "ipaddr.js"
          },
          "version": "1.0.5"
        },
        {
          "package": {
            "name": "isarray"
          },
          "version": "0.0.1"
        },
        {
          "package": {
            "name": "media-typer"
          },
          "version": "0.3.0"
        },
        {
          "package": {
            "name": "merge-descriptors"
          },
          "version": "1.0.0"
        },
        {
          "package": {
            "name": "method-override"
          },
          "version": "2.3.10"
        },
        {
          "package": {
            "name": "methods"
          },
          "version": "1.1.2"
        },
        {
          "package": {
            "name": "mime"
          },
          "version": "1.3.4"
        },
        {
          "package": {
            "name": "mime-db"
          },
          "version": "1.52.0"
        },
        {
          "package": {
            "name": "mime-types"
          },
          "version": "2.1.35"
        },
        {
          "package": {
            "name": "minimist"
          },
          "version": "0.0.8"
        },
        {
          "package": {
            "name": "mkdirp"
          },
          "version": "0.5.1"
        },
        {
          "package": {
            "name": "morgan"
          },
          "version": "1.6.1"
        },
        {
          "package": {
            "name": "ms"
          },
          "version": "0.7.1"
        },
        {
          "package": {
            "name": "ms"
          },
          "version": "0.7.2"
        },
        {
          "package": {
            "name": "ms"
          },
          "version": "2.0.0"
        },
        {
          "package": {
            "name": "multiparty"
          },
          "version": "3.3.2"
        },
        {
          "package": {
            "name": "negotiator"
          },
          "version": "0.5.3"
        },
        {
          "package": {
            "name": "negotiator"
          },
          "version": "0.6.3"
        },
        {
          "package": {
            "name": "on-finished"
          },
          "version": "2.3.0"
        },
        {
          "package": {
            "name": "on-headers"
          },
          "version": "1.0.2"
        },
        {
          "package": {
            "name": "parseurl"
          },
          "version": "1.3.3"
        },
        {
          "package": {
            "name": "pause"
          },
          "version": "0.1.0"
        },
        {
          "package": {
            "name": "proxy-addr"
          },
          "version": "1.0.10"
        },
        {
          "package": {
            "name": "qs"
          },
          "version": "4.0.0"
        },
        {
          "package": {
            "name": "random-bytes"
          },
          "version": "1.0.0"
        },
        {
          "package": {
            "name": "range-parser"
          },
          "version": "1.0.3"
        },
        {
          "package": {
            "name": "raw-body"
          },
          "version": "2.1.7"
        },
        {
          "package": {
            "name": "readable-stream"
          },
          "version": "1.1.14"
        },
        {
          "package": {
            "name": "response-time"
          },
          "version": "2.3.2"
        },
        {
          "package": {
            "name": "rndm"
          },
          "version": "1.2.0"
        },
        {
          "package": {
            "name": "send"
          },
          "version": "0.13.0"
        },
        {
          "package": {
            "name": "send"
          },
          "version": "0.13.2"
        },
        {
          "package": {
            "name": "serve-favicon"
          },
          "version": "2.3.2"
        },
        {
          "package": {
            "name": "serve-index"
          },
          "version": "1.7.3"
        },
        {
          "package": {
            "name": "serve-static"
          },
          "version": "1.10.3"
        },
        {
          "package": {
            "name": "statuses"
          },
          "version": "1.2.1"
        },
        {
          "package": {
            "name": "statuses"
          },
          "version": "1.5.0"
        },
        {
          "package": {
            "name": "stream-counter"
          },
          "version": "0.2.0"
        },
        {
          "package": {
            "name": "string_decoder"
          },
          "version": "0.10.31"
        },
        {
          "package": {
            "name": "tsscmp"
          },
          "version": "1.0.5"
        },
        {
          "package": {
            "name": "type-is"
          },
          "version": "1.6.18"
        },
        {
          "package": {
            "name": "uid-safe"
          },
          "version": "2.0.0"
        },
        {
          "package": {
            "name": "uid-safe"
          },
          "version": "2.1.4"
        },
        {
          "package": {
            "name": "unpipe"
          },
          "version": "1.0.0"
        },
        {
          "package": {
            "name": "utils-merge"
          },
          "version": "1.0.0"
        },
        {
          "package": {
            "name": "vary"
          },
          "version": "1.0.1"
        },
        {
          "package": {
            "name": "vary"
          },
          "version": "1.1.2"
        },
        {
          "package": {
            "name": "vhost"
          },
          "version": "3.0.2"
        }
      ]
    }
  ],
  "scan": {
    "analyzer": {
      "id": "gemnasium",
      "name": "Gemnasium",
      "url": "https://gitlab.com/gitlab-org/security-products/analyzers/gemnasium",
      "vendor": {
        "name": "GitLab"
      },
      "version": "3.12.0"
    },
    "scanner": {
      "id": "gemnasium",
      "name": "Gemnasium",
      "url": "https://gitlab.com/gitlab-org/security-products/analyzers/gemnasium",
      "vendor": {
        "name": "GitLab"
      },
      "version": "3.12.0"
    },
    "type": "dependency_scanning",
    "start_time": "2023-03-13T12:56:34",
    "end_time": "2023-03-13T12:56:42",
    "status": "success"
  }
}
